#FIG 3.2
Landscape
Center
Inches
Letter
100.00
Single
-2
1200 2
2 1 0 1 -1 -1 10 0 -1     0.000 0 0 0 0 0 2
	 1650 4675 1725 4675
2 1 0 1 -1 -1 10 0 -1     0.000 0 0 0 0 0 2
	 3915 4675 3840 4675
4 2 -1 0 -1 0 10.000  0.000 4 125.000 300.000 1575 4737 -140\001
2 1 0 1 -1 -1 10 0 -1     0.000 0 0 0 0 0 2
	 1650 4484 1725 4484
2 1 0 1 -1 -1 10 0 -1     0.000 0 0 0 0 0 2
	 3915 4484 3840 4484
4 2 -1 0 -1 0 10.000  0.000 4 125.000 300.000 1575 4546 -120\001
2 1 0 1 -1 -1 10 0 -1     0.000 0 0 0 0 0 2
	 1650 4294 1725 4294
2 1 0 1 -1 -1 10 0 -1     0.000 0 0 0 0 0 2
	 3915 4294 3840 4294
4 2 -1 0 -1 0 10.000  0.000 4 125.000 300.000 1575 4356 -100\001
2 1 0 1 -1 -1 10 0 -1     0.000 0 0 0 0 0 2
	 1650 4103 1725 4103
2 1 0 1 -1 -1 10 0 -1     0.000 0 0 0 0 0 2
	 3915 4103 3840 4103
4 2 -1 0 -1 0 10.000  0.000 4 125.000 225.000 1575 4165 -80\001
2 1 0 1 -1 -1 10 0 -1     0.000 0 0 0 0 0 2
	 1650 3912 1725 3912
2 1 0 1 -1 -1 10 0 -1     0.000 0 0 0 0 0 2
	 3915 3912 3840 3912
4 2 -1 0 -1 0 10.000  0.000 4 125.000 225.000 1575 3974 -60\001
2 1 0 1 -1 -1 10 0 -1     0.000 0 0 0 0 0 2
	 1650 3722 1725 3722
2 1 0 1 -1 -1 10 0 -1     0.000 0 0 0 0 0 2
	 3915 3722 3840 3722
4 2 -1 0 -1 0 10.000  0.000 4 125.000 225.000 1575 3784 -40\001
2 1 0 1 -1 -1 10 0 -1     0.000 0 0 0 0 0 2
	 1650 3531 1725 3531
2 1 0 1 -1 -1 10 0 -1     0.000 0 0 0 0 0 2
	 3915 3531 3840 3531
4 2 -1 0 -1 0 10.000  0.000 4 125.000 225.000 1575 3593 -20\001
2 1 0 1 -1 -1 10 0 -1     0.000 0 0 0 0 0 2
	 1650 3341 1725 3341
2 1 0 1 -1 -1 10 0 -1     0.000 0 0 0 0 0 2
	 3915 3341 3840 3341
4 2 -1 0 -1 0 10.000  0.000 4 125.000 150.000 1575 3403  0\001
2 1 0 1 -1 -1 10 0 -1     0.000 0 0 0 0 0 2
	 1650 3150 1725 3150
2 1 0 1 -1 -1 10 0 -1     0.000 0 0 0 0 0 2
	 3915 3150 3840 3150
4 2 -1 0 -1 0 10.000  0.000 4 125.000 225.000 1575 3212  20\001
2 1 0 1 -1 -1 10 0 -1     0.000 0 0 0 0 0 2
	 1650 4675 1650 4600
2 1 0 1 -1 -1 10 0 -1     0.000 0 0 0 0 0 2
	 1650 3150 1650 3225
2 1 0 1 -1 -1 10 0 -1     0.000 0 0 0 0 0 2
	 1786 4675 1786 4638
2 1 0 1 -1 -1 10 0 -1     0.000 0 0 0 0 0 2
	 1786 3150 1786 3187
2 1 0 1 -1 -1 10 0 -1     0.000 0 0 0 0 0 2
	 1967 4675 1967 4638
2 1 0 1 -1 -1 10 0 -1     0.000 0 0 0 0 0 2
	 1967 3150 1967 3187
2 1 0 1 -1 -1 10 0 -1     0.000 0 0 0 0 0 2
	 2059 4675 2059 4638
2 1 0 1 -1 -1 10 0 -1     0.000 0 0 0 0 0 2
	 2059 3150 2059 3187
2 1 0 1 -1 -1 10 0 -1     0.000 0 0 0 0 0 2
	 2103 4675 2103 4600
2 1 0 1 -1 -1 10 0 -1     0.000 0 0 0 0 0 2
	 2103 3150 2103 3225
2 1 0 1 -1 -1 10 0 -1     0.000 0 0 0 0 0 2
	 2239 4675 2239 4638
2 1 0 1 -1 -1 10 0 -1     0.000 0 0 0 0 0 2
	 2239 3150 2239 3187
2 1 0 1 -1 -1 10 0 -1     0.000 0 0 0 0 0 2
	 2420 4675 2420 4638
2 1 0 1 -1 -1 10 0 -1     0.000 0 0 0 0 0 2
	 2420 3150 2420 3187
2 1 0 1 -1 -1 10 0 -1     0.000 0 0 0 0 0 2
	 2512 4675 2512 4638
2 1 0 1 -1 -1 10 0 -1     0.000 0 0 0 0 0 2
	 2512 3150 2512 3187
2 1 0 1 -1 -1 10 0 -1     0.000 0 0 0 0 0 2
	 2556 4675 2556 4600
2 1 0 1 -1 -1 10 0 -1     0.000 0 0 0 0 0 2
	 2556 3150 2556 3225
2 1 0 1 -1 -1 10 0 -1     0.000 0 0 0 0 0 2
	 2692 4675 2692 4638
2 1 0 1 -1 -1 10 0 -1     0.000 0 0 0 0 0 2
	 2692 3150 2692 3187
2 1 0 1 -1 -1 10 0 -1     0.000 0 0 0 0 0 2
	 2873 4675 2873 4638
2 1 0 1 -1 -1 10 0 -1     0.000 0 0 0 0 0 2
	 2873 3150 2873 3187
2 1 0 1 -1 -1 10 0 -1     0.000 0 0 0 0 0 2
	 2965 4675 2965 4638
2 1 0 1 -1 -1 10 0 -1     0.000 0 0 0 0 0 2
	 2965 3150 2965 3187
2 1 0 1 -1 -1 10 0 -1     0.000 0 0 0 0 0 2
	 3009 4675 3009 4600
2 1 0 1 -1 -1 10 0 -1     0.000 0 0 0 0 0 2
	 3009 3150 3009 3225
2 1 0 1 -1 -1 10 0 -1     0.000 0 0 0 0 0 2
	 3145 4675 3145 4638
2 1 0 1 -1 -1 10 0 -1     0.000 0 0 0 0 0 2
	 3145 3150 3145 3187
2 1 0 1 -1 -1 10 0 -1     0.000 0 0 0 0 0 2
	 3326 4675 3326 4638
2 1 0 1 -1 -1 10 0 -1     0.000 0 0 0 0 0 2
	 3326 3150 3326 3187
2 1 0 1 -1 -1 10 0 -1     0.000 0 0 0 0 0 2
	 3418 4675 3418 4638
2 1 0 1 -1 -1 10 0 -1     0.000 0 0 0 0 0 2
	 3418 3150 3418 3187
2 1 0 1 -1 -1 10 0 -1     0.000 0 0 0 0 0 2
	 3462 4675 3462 4600
2 1 0 1 -1 -1 10 0 -1     0.000 0 0 0 0 0 2
	 3462 3150 3462 3225
2 1 0 1 -1 -1 10 0 -1     0.000 0 0 0 0 0 2
	 3598 4675 3598 4638
2 1 0 1 -1 -1 10 0 -1     0.000 0 0 0 0 0 2
	 3598 3150 3598 3187
2 1 0 1 -1 -1 10 0 -1     0.000 0 0 0 0 0 2
	 3779 4675 3779 4638
2 1 0 1 -1 -1 10 0 -1     0.000 0 0 0 0 0 2
	 3779 3150 3779 3187
2 1 0 1 -1 -1 10 0 -1     0.000 0 0 0 0 0 2
	 3871 4675 3871 4638
2 1 0 1 -1 -1 10 0 -1     0.000 0 0 0 0 0 2
	 3871 3150 3871 3187
2 1 0 1 -1 -1 10 0 -1     0.000 0 0 0 0 0 2
	 3915 4675 3915 4600
2 1 0 1 -1 -1 10 0 -1     0.000 0 0 0 0 0 2
	 3915 3150 3915 3225
2 1 0 1 -1 -1 10 0 -1     0.000 0 0 0 0 0 5
	 1650 4675 3915 4675 3915 3150 1650 3150 1650 4675
4 1 -1 0 -1 0 10.000  1.571 4 125.000 675.000 1199 3913 Mag. (dB)\001
2 1 0 1 -1 -1 10 0 -1     0.000 0 0 0 0 0 53
	 1650 3341 1650 3341 1718 3341 1770 3341 1821 3341 1873 3341
	 1924 3340 1976 3340 2027 3340 2079 3340 2103 3340 2130 3339
	 2182 3338 2233 3337 2285 3334 2321 3331 2360 3327 2393 3323
	 2421 3320 2444 3319 2467 3321 2494 3330 2528 3352 2556 3378
	 2567 3388 2594 3414 2645 3463 2694 3508 2697 3510 2748 3556
	 2800 3601 2851 3645 2903 3689 2954 3733 3006 3776 3009 3779
	 3057 3820 3109 3863 3160 3907 3212 3950 3264 3993 3315 4037
	 3367 4080 3418 4124 3462 4161 3470 4167 3521 4210 3573 4254
	 3624 4297 3676 4340 3727 4384 3779 4427 3915 4542
2 1 0 1 -1 -1 10 0 -1     0.000 0 0 0 0 0 5
	 1650 4675 3915 4675 3915 3150 1650 3150 1650 4675
