#FIG 3.2
Landscape
Center
Inches
Letter
100.00
Single
-2
1200 2
2 1 0 1 -1 -1 10 0 -1     0.000 0 0 0 0 0 2
	 1650 4297 1725 4297
2 1 0 1 -1 -1 10 0 -1     0.000 0 0 0 0 0 2
	 3915 4297 3840 4297
4 2 -1 0 -1 0 10.000  0.000 4 125.000 300.000 1575 4359 -184\001
2 1 0 1 -1 -1 10 0 -1     0.000 0 0 0 0 0 2
	 1650 4042 1725 4042
2 1 0 1 -1 -1 10 0 -1     0.000 0 0 0 0 0 2
	 3915 4042 3840 4042
4 2 -1 0 -1 0 10.000  0.000 4 125.000 300.000 1575 4104 -182\001
2 1 0 1 -1 -1 10 0 -1     0.000 0 0 0 0 0 2
	 1650 3787 1725 3787
2 1 0 1 -1 -1 10 0 -1     0.000 0 0 0 0 0 2
	 3915 3787 3840 3787
4 2 -1 0 -1 0 10.000  0.000 4 125.000 300.000 1575 3849 -180\001
2 1 0 1 -1 -1 10 0 -1     0.000 0 0 0 0 0 2
	 1650 3532 1725 3532
2 1 0 1 -1 -1 10 0 -1     0.000 0 0 0 0 0 2
	 3915 3532 3840 3532
4 2 -1 0 -1 0 10.000  0.000 4 125.000 300.000 1575 3594 -178\001
2 1 0 1 -1 -1 10 0 -1     0.000 0 0 0 0 0 2
	 1650 3277 1725 3277
2 1 0 1 -1 -1 10 0 -1     0.000 0 0 0 0 0 2
	 3915 3277 3840 3277
4 2 -1 0 -1 0 10.000  0.000 4 125.000 300.000 1575 3339 -176\001
2 1 0 1 -1 -1 10 0 -1     0.000 0 0 0 0 0 2
	 1650 4425 1650 4350
2 1 0 1 -1 -1 10 0 -1     0.000 0 0 0 0 0 2
	 1650 3150 1650 3225
4 1 -1 0 -1 0 10.000  0.000 4 125.000 375.000 1650 4612 10^-1\001
2 1 0 1 -1 -1 10 0 -1     0.000 0 0 0 0 0 2
	 1786 4425 1786 4388
2 1 0 1 -1 -1 10 0 -1     0.000 0 0 0 0 0 2
	 1786 3150 1786 3187
2 1 0 1 -1 -1 10 0 -1     0.000 0 0 0 0 0 2
	 1967 4425 1967 4388
2 1 0 1 -1 -1 10 0 -1     0.000 0 0 0 0 0 2
	 1967 3150 1967 3187
2 1 0 1 -1 -1 10 0 -1     0.000 0 0 0 0 0 2
	 2059 4425 2059 4388
2 1 0 1 -1 -1 10 0 -1     0.000 0 0 0 0 0 2
	 2059 3150 2059 3187
2 1 0 1 -1 -1 10 0 -1     0.000 0 0 0 0 0 2
	 2103 4425 2103 4350
2 1 0 1 -1 -1 10 0 -1     0.000 0 0 0 0 0 2
	 2103 3150 2103 3225
4 1 -1 0 -1 0 10.000  0.000 4 125.000 300.000 2103 4612 10^0\001
2 1 0 1 -1 -1 10 0 -1     0.000 0 0 0 0 0 2
	 2239 4425 2239 4388
2 1 0 1 -1 -1 10 0 -1     0.000 0 0 0 0 0 2
	 2239 3150 2239 3187
2 1 0 1 -1 -1 10 0 -1     0.000 0 0 0 0 0 2
	 2420 4425 2420 4388
2 1 0 1 -1 -1 10 0 -1     0.000 0 0 0 0 0 2
	 2420 3150 2420 3187
2 1 0 1 -1 -1 10 0 -1     0.000 0 0 0 0 0 2
	 2512 4425 2512 4388
2 1 0 1 -1 -1 10 0 -1     0.000 0 0 0 0 0 2
	 2512 3150 2512 3187
2 1 0 1 -1 -1 10 0 -1     0.000 0 0 0 0 0 2
	 2556 4425 2556 4350
2 1 0 1 -1 -1 10 0 -1     0.000 0 0 0 0 0 2
	 2556 3150 2556 3225
4 1 -1 0 -1 0 10.000  0.000 4 125.000 300.000 2556 4612 10^1\001
2 1 0 1 -1 -1 10 0 -1     0.000 0 0 0 0 0 2
	 2692 4425 2692 4388
2 1 0 1 -1 -1 10 0 -1     0.000 0 0 0 0 0 2
	 2692 3150 2692 3187
2 1 0 1 -1 -1 10 0 -1     0.000 0 0 0 0 0 2
	 2873 4425 2873 4388
2 1 0 1 -1 -1 10 0 -1     0.000 0 0 0 0 0 2
	 2873 3150 2873 3187
2 1 0 1 -1 -1 10 0 -1     0.000 0 0 0 0 0 2
	 2965 4425 2965 4388
2 1 0 1 -1 -1 10 0 -1     0.000 0 0 0 0 0 2
	 2965 3150 2965 3187
2 1 0 1 -1 -1 10 0 -1     0.000 0 0 0 0 0 2
	 3009 4425 3009 4350
2 1 0 1 -1 -1 10 0 -1     0.000 0 0 0 0 0 2
	 3009 3150 3009 3225
4 1 -1 0 -1 0 10.000  0.000 4 125.000 300.000 3009 4612 10^2\001
2 1 0 1 -1 -1 10 0 -1     0.000 0 0 0 0 0 2
	 3145 4425 3145 4388
2 1 0 1 -1 -1 10 0 -1     0.000 0 0 0 0 0 2
	 3145 3150 3145 3187
2 1 0 1 -1 -1 10 0 -1     0.000 0 0 0 0 0 2
	 3326 4425 3326 4388
2 1 0 1 -1 -1 10 0 -1     0.000 0 0 0 0 0 2
	 3326 3150 3326 3187
2 1 0 1 -1 -1 10 0 -1     0.000 0 0 0 0 0 2
	 3418 4425 3418 4388
2 1 0 1 -1 -1 10 0 -1     0.000 0 0 0 0 0 2
	 3418 3150 3418 3187
2 1 0 1 -1 -1 10 0 -1     0.000 0 0 0 0 0 2
	 3462 4425 3462 4350
2 1 0 1 -1 -1 10 0 -1     0.000 0 0 0 0 0 2
	 3462 3150 3462 3225
4 1 -1 0 -1 0 10.000  0.000 4 125.000 300.000 3462 4612 10^3\001
2 1 0 1 -1 -1 10 0 -1     0.000 0 0 0 0 0 2
	 3598 4425 3598 4388
2 1 0 1 -1 -1 10 0 -1     0.000 0 0 0 0 0 2
	 3598 3150 3598 3187
2 1 0 1 -1 -1 10 0 -1     0.000 0 0 0 0 0 2
	 3779 4425 3779 4388
2 1 0 1 -1 -1 10 0 -1     0.000 0 0 0 0 0 2
	 3779 3150 3779 3187
2 1 0 1 -1 -1 10 0 -1     0.000 0 0 0 0 0 2
	 3871 4425 3871 4388
2 1 0 1 -1 -1 10 0 -1     0.000 0 0 0 0 0 2
	 3871 3150 3871 3187
2 1 0 1 -1 -1 10 0 -1     0.000 0 0 0 0 0 2
	 3915 4425 3915 4350
2 1 0 1 -1 -1 10 0 -1     0.000 0 0 0 0 0 2
	 3915 3150 3915 3225
4 1 -1 0 -1 0 10.000  0.000 4 125.000 300.000 3915 4612 10^4\001
2 1 0 1 -1 -1 10 0 -1     0.000 0 0 0 0 0 5
	 1650 4425 3915 4425 3915 3150 1650 3150 1650 4425
4 1 -1 0 -1 0 10.000  1.571 4 125.000 1050.000 1199 3788 Phase (degree)\001
4 1 -1 0 -1 0 10.000  0.000 4 125.000 1425.000 2782 4799 Frequency (rad/sec)\001
2 1 0 1 -1 -1 10 0 -1     0.000 0 0 0 0 0 53
	 1650 3787 1650 3787 1718 3787 1770 3787 1821 3787 1873 3787
	 1924 3787 1976 3787 2027 3787 2079 3787 2103 3787 2130 3787
	 2182 3787 2233 3787 2285 3787 2321 3787 2360 3787 2393 3787
	 2421 3787 2444 3787 2467 3787 2494 3787 2528 3787 2556 3787
	 2567 3787 2594 3787 2645 3787 2694 3787 2697 3787 2748 3787
	 2800 3787 2851 3787 2903 3787 2954 3787 3006 3787 3009 3787
	 3057 3787 3109 3787 3160 3787 3212 3787 3264 3787 3315 3787
	 3367 3787 3418 3787 3462 3787 3470 3787 3521 3787 3573 3787
	 3624 3787 3676 3787 3727 3787 3779 3787 3915 3787
2 1 0 1 -1 -1 10 0 -1     0.000 0 0 0 0 0 5
	 1650 4425 3915 4425 3915 3150 1650 3150 1650 4425
