#FIG 3.2
Landscape
Center
Inches
Letter  
100.00
Single
-2
1200 2
6 750 675 1125 2025
6 750 675 1125 2025
2 2 0 1 0 7 20 -1 -1 0.000 0 0 -1 0 0 5
	 750 675 1125 675 1125 1875 750 1875 750 675
4 1 0 20 -1 0 10 0.0000 0 15 75 819 804 _\001
4 1 0 20 -1 0 10 0.0000 0 15 75 819 1108 _\001
4 1 0 20 -1 0 10 0.0000 0 105 270 928 2025 Add\001
-6
4 1 0 20 -1 0 10 0.0000 0 75 90 819 1474 +\001
4 1 0 20 -1 0 10 0.0000 0 75 90 819 1776 +\001
-6
6 2175 1050 2625 1500
2 1 0 1 0 7 10 -1 -1 0.000 0 0 -1 0 0 2
	 2325 1275 2475 1275
2 2 0 1 0 7 10 -1 -1 0.000 0 0 -1 0 0 5
	 2175 1050 2625 1050 2625 1500 2175 1500 2175 1050
4 1 0 10 -1 0 10 0.0000 0 105 75 2400 1220 1\001
4 1 0 10 -1 0 10 0.0000 0 75 60 2400 1425 s\001
-6
6 3225 900 3375 1350
2 1 0 1 0 7 40 -1 -1 0.000 0 0 -1 1 0 2
	1 1 1.00 120.00 135.00
	 3300 1275 3300 900
2 1 0 3 0 7 40 -1 -1 0.000 0 0 -1 0 0 1
	 3300 1275
-6
6 3075 450 3818 900
2 3 0 1 0 7 40 -1 -1 0.000 0 0 -1 0 0 4
	 3525 900 3300 450 3075 900 3525 900
4 1 0 40 -1 0 10 0.0000 0 105 225 3300 825 -K-\001
4 1 0 40 -1 0 10 0.0000 0 105 285 3675 750 Gain\001
-6
6 2858 1650 3525 2100
2 3 0 1 0 7 50 -1 -1 0.000 0 0 -1 0 0 4
	 3075 1650 3300 2100 3525 1650 3075 1650
4 1 0 50 -1 0 10 0.0000 0 105 225 3300 1800 -K-\001
4 1 0 50 -1 0 10 0.0000 0 105 285 3000 1950 Gain\001
-6
6 3975 1050 4425 1500
2 1 0 1 0 7 10 -1 -1 0.000 0 0 -1 0 0 2
	 4125 1275 4275 1275
2 2 0 1 0 7 10 -1 -1 0.000 0 0 -1 0 0 5
	 3975 1050 4425 1050 4425 1500 3975 1500 3975 1050
4 1 0 10 -1 0 10 0.0000 0 105 75 4200 1220 1\001
4 1 0 10 -1 0 10 0.0000 0 75 60 4200 1425 s\001
-6
6 4875 1050 5325 1575
2 3 0 1 0 7 20 -1 -1 0.000 0 0 -1 0 0 4
	 4875 1500 5325 1275 4875 1050 4875 1500
4 1 0 20 -1 0 10 0.0000 0 105 225 5025 1350 -K-\001
4 1 0 20 -1 0 10 0.0000 0 105 285 5100 1575 Gain\001
-6
6 4950 1725 5400 2250
2 3 0 1 0 7 50 -1 -1 0.000 0 0 -1 0 0 4
	 4950 2175 5400 1950 4950 1725 4950 2175
4 1 0 50 -1 0 10 0.0000 0 105 225 5100 2025 -K-\001
4 1 0 50 -1 0 10 0.0000 0 105 285 5175 2250 Gain\001
-6
6 4800 2550 5543 3000
2 3 0 1 0 7 40 -1 -1 0.000 0 0 -1 0 0 4
	 5250 3000 5025 2550 4800 3000 5250 3000
4 1 0 40 -1 0 10 0.0000 0 105 225 5025 2925 -K-\001
4 1 0 40 -1 0 10 0.0000 0 105 285 5400 2850 Gain\001
-6
6 1425 3150 1875 3675
2 3 0 1 0 7 50 -1 -1 0.000 0 0 -1 0 0 4
	 1425 3600 1875 3375 1425 3150 1425 3600
4 1 0 50 -1 0 10 0.0000 0 105 285 1650 3675 Gain\001
4 1 0 50 -1 0 10 0.0000 0 105 225 1575 3450 -K-\001
-6
6 2175 3150 2625 3600
2 1 0 1 0 7 20 -1 -1 0.000 0 0 -1 0 0 2
	 2325 3375 2475 3375
2 2 0 1 0 7 20 -1 -1 0.000 0 0 -1 0 0 5
	 2175 3150 2625 3150 2625 3600 2175 3600 2175 3150
4 1 0 20 -1 0 10 0.0000 0 105 75 2400 3320 1\001
4 1 0 20 -1 0 10 0.0000 0 75 60 2400 3525 s\001
-6
6 3150 3000 3300 3450
2 1 0 1 0 7 40 -1 -1 0.000 0 0 -1 1 0 2
	1 1 1.00 120.00 135.00
	 3225 3375 3225 3000
2 1 0 3 0 7 40 -1 -1 0.000 0 0 -1 0 0 1
	 3225 3375
-6
6 3000 2550 3743 3000
2 3 0 1 0 7 40 -1 -1 0.000 0 0 -1 0 0 4
	 3450 3000 3225 2550 3000 3000 3450 3000
4 1 0 40 -1 0 10 0.0000 0 105 285 3600 2850 Gain\001
4 1 0 40 -1 0 10 0.0000 0 105 225 3225 2925 -K-\001
-6
6 2783 3750 3450 4200
6 2783 3750 3450 4200
2 3 0 1 0 7 50 -1 -1 0.000 0 0 -1 0 0 4
	 3000 3750 3225 4200 3450 3750 3000 3750
4 1 0 50 -1 0 10 0.0000 0 105 285 2925 4050 Gain\001
-6
4 1 0 50 -1 0 10 0.0000 0 105 225 3225 3900 -K-\001
-6
6 3975 3150 4425 3600
2 1 0 1 0 7 20 -1 -1 0.000 0 0 -1 0 0 2
	 4125 3375 4275 3375
2 2 0 1 0 7 20 -1 -1 0.000 0 0 -1 0 0 5
	 3975 3150 4425 3150 4425 3600 3975 3600 3975 3150
4 1 0 20 -1 0 10 0.0000 0 105 75 4200 3320 1\001
4 1 0 20 -1 0 10 0.0000 0 75 60 4200 3525 s\001
-6
6 4950 3300 5100 3750
2 1 0 1 0 7 50 -1 -1 0.000 0 0 -1 1 0 2
	1 1 1.00 120.00 135.00
	 5025 3375 5025 3750
2 1 0 3 0 7 50 -1 -1 0.000 0 0 -1 0 0 1
	 5025 3375
-6
6 4575 3750 5242 4200
2 3 0 1 0 7 50 -1 -1 0.000 0 0 -1 0 0 4
	 4792 3750 5017 4200 5242 3750 4792 3750
4 1 0 50 -1 0 10 0.0000 0 105 285 4717 4050 Gain\001
4 1 0 50 -1 0 10 0.0000 0 105 225 5017 3900 -K-\001
-6
6 750 2775 1125 4125
2 1 0 1 0 7 50 -1 -1 0.000 0 0 -1 0 0 1
	 750 3150
2 2 0 1 0 7 50 -1 -1 0.000 0 0 -1 0 0 5
	 750 2775 1125 2775 1125 3975 750 3975 750 2775
4 1 0 50 -1 0 10 0.0000 0 15 75 819 3811 _\001
4 1 0 50 -1 0 10 0.0000 0 15 75 819 3581 _\001
4 1 0 50 -1 0 10 0.0000 0 75 90 821 3430 +\001
4 1 0 50 -1 0 10 0.0000 0 75 90 821 3201 +\001
4 1 0 50 -1 0 10 0.0000 0 75 90 821 2976 +\001
4 1 0 50 -1 0 10 0.0000 0 105 270 929 4125 Add\001
-6
6 4050 6000 4717 6450
2 3 0 1 0 7 50 -1 -1 0.000 0 0 -1 0 0 4
	 4267 6000 4492 6450 4717 6000 4267 6000
4 1 0 50 -1 0 10 0.0000 0 105 285 4192 6300 Gain\001
4 1 0 50 -1 0 10 0.0000 0 105 225 4492 6150 -K-\001
-6
6 750 5025 1125 6375
2 2 0 1 0 7 50 -1 -1 0.000 0 0 -1 0 0 5
	 750 5025 1125 5025 1125 6225 750 6225 750 5025
4 1 0 50 -1 0 10 0.0000 0 105 270 928 6375 Add\001
4 1 0 50 -1 0 10 0.0000 0 75 90 821 5226 +\001
4 1 0 50 -1 0 10 0.0000 0 15 75 819 5612 _\001
4 1 0 50 -1 0 10 0.0000 0 75 90 821 6118 +\001
-6
6 1500 5400 1950 5925
2 3 0 1 0 7 50 -1 -1 0.000 0 0 -1 0 0 4
	 1500 5850 1950 5625 1500 5400 1500 5850
4 1 0 50 -1 0 10 0.0000 0 105 285 1725 5925 Gain\001
4 1 0 50 -1 0 10 0.0000 0 105 225 1650 5700 -K-\001
-6
6 2175 5400 2625 5850
2 1 0 1 0 7 50 -1 -1 0.000 0 0 -1 0 0 2
	 2325 5625 2475 5625
2 2 0 1 0 7 50 -1 -1 0.000 0 0 -1 0 0 5
	 2175 5400 2625 5400 2625 5850 2175 5850 2175 5400
4 1 0 50 -1 0 10 0.0000 0 105 75 2400 5570 1\001
4 1 0 50 -1 0 10 0.0000 0 75 60 2400 5775 s\001
-6
6 3450 5400 3900 5850
2 1 0 1 0 7 50 -1 -1 0.000 0 0 -1 0 0 2
	 3600 5625 3750 5625
2 2 0 1 0 7 50 -1 -1 0.000 0 0 -1 0 0 5
	 3450 5400 3900 5400 3900 5850 3450 5850 3450 5400
4 1 0 50 -1 0 10 0.0000 0 105 75 3675 5570 1\001
4 1 0 50 -1 0 10 0.0000 0 75 60 3675 5775 s\001
-6
6 4275 4800 5018 5250
2 3 0 1 0 7 50 -1 -1 0.000 0 0 -1 0 0 4
	 4725 5250 4500 4800 4275 5250 4725 5250
4 1 0 50 -1 0 10 0.0000 0 105 225 4500 5175 -K-\001
4 1 0 50 -1 0 10 0.0000 0 105 285 4875 5100 Gain\001
-6
6 4425 5550 4575 6000
2 1 0 1 0 7 50 -1 -1 0.000 0 0 -1 1 0 2
	1 1 1.00 120.00 135.00
	 4500 5625 4500 6000
2 1 0 3 0 7 50 -1 -1 0.000 0 0 -1 0 0 1
	 4500 5625
-6
6 4958 5400 5625 5850
2 3 0 1 0 7 50 -1 -1 0.000 0 0 -1 0 0 4
	 5175 5400 5400 5850 5625 5400 5175 5400
4 1 0 50 -1 0 10 0.0000 0 105 285 5100 5700 Gain\001
4 1 0 50 -1 0 10 0.0000 0 105 225 5400 5550 -K-\001
-6
6 2775 6300 3225 6930
2 2 0 1 0 7 67 -1 -1 0.000 0 0 -1 0 0 5
	 2850 6375 3150 6375 3150 6525 2850 6525 2850 6375
2 2 0 1 0 7 67 -1 -1 0.000 0 0 -1 0 0 5
	 2775 6300 3225 6300 3225 6750 2775 6750 2775 6300
4 1 0 67 -1 0 10 0.0000 0 135 345 3000 6900 Scope\001
-6
6 1800 7350 2250 7800
1 3 0 1 0 7 70 -1 -1 0.000 1 0.0000 2025 7575 150 150 2025 7575 2175 7575
2 1 0 1 0 7 70 -1 -1 0.000 0 0 -1 0 0 3
	 2025 7465 2025 7575 2139 7575
-6
6 1425 1050 1875 1575
2 3 0 1 0 7 30 -1 -1 0.000 0 0 -1 0 0 4
	 1425 1500 1875 1275 1425 1050 1425 1500
4 1 0 30 -1 0 10 0.0000 0 105 285 1650 1575 Gain\001
4 1 0 30 -1 0 10 0.0000 0 105 225 1575 1350 -K-\001
-6
6 1350 6375 1950 6975
2 2 0 1 0 7 57 -1 -1 0.000 0 0 -1 0 0 5
	 1425 6375 1875 6375 1875 6825 1425 6825 1425 6375
4 1 0 57 -1 0 10 0.0000 0 105 90 1650 6675 F\001
4 1 0 57 -1 0 10 0.0000 0 105 570 1650 6975 Constant\001
-6
6 1725 6375 2175 6825
1 3 0 1 0 7 70 -1 -1 0.000 1 0.0000 1950 6600 150 150 1950 6600 2100 6600
2 1 0 1 0 7 70 -1 -1 0.000 0 0 -1 0 0 3
	 1950 6490 1950 6600 2064 6600
-6
6 900 6375 1425 6900
2 3 0 1 0 7 70 -1 -1 0.000 0 0 -1 0 0 4
	 1350 6375 900 6600 1350 6825 1350 6375
4 1 0 70 -1 0 10 0.0000 0 105 225 1267 6675 -K-\001
4 1 0 70 -1 0 10 0.0000 0 105 285 1050 6900 Gain\001
-6
2 1 0 1 0 7 40 -1 -1 0.000 0 0 -1 1 0 5
	1 1 1.00 120.00 135.00
	 3300 450 3300 300 375 300 375 825 750 825
2 1 0 1 0 7 24 -1 -1 0.000 0 0 -1 0 0 3
	 675 1650 750 1725 675 1800
2 1 0 1 0 7 24 -1 -1 0.000 0 0 -1 0 0 3
	 675 1350 750 1425 675 1500
2 1 0 1 0 7 24 -1 -1 0.000 0 0 -1 0 0 3
	 675 750 750 825 675 900
2 1 0 1 0 7 40 -1 -1 0.000 0 0 -1 1 0 5
	1 1 1.00 120.00 135.00
	 5025 2550 5025 2325 300 2325 300 1725 750 1725
2 1 0 1 0 7 50 -1 -1 0.000 0 0 -1 1 0 5
	1 1 1.00 120.00 135.00
	 3300 2100 3300 2175 450 2175 450 2925 750 2925
2 1 0 1 0 7 50 -1 -1 0.000 0 0 -1 1 0 5
	1 1 1.00 120.00 135.00
	 5025 4200 5025 4425 375 4425 375 3600 750 3600
2 1 0 1 0 7 50 -1 -1 0.000 0 0 -1 1 0 5
	1 1 1.00 120.00 135.00
	 3225 4200 3225 4275 525 4275 525 3825 750 3825
2 1 0 1 0 7 40 -1 -1 0.000 0 0 -1 1 0 5
	1 1 1.00 120.00 135.00
	 3225 2550 3225 2475 150 2475 150 1425 750 1425
2 1 0 1 0 7 23 -1 -1 0.000 0 0 -1 0 0 3
	 1125 1200 1200 1275 1125 1350
2 1 0 1 0 7 30 -1 -1 0.000 0 0 -1 1 0 2
	1 1 1.00 120.00 135.00
	 1125 1275 1425 1275
2 1 0 1 0 7 30 -1 -1 0.000 0 0 -1 1 0 2
	1 1 1.00 120.00 135.00
	 1875 1275 2175 1275
2 1 0 1 0 7 13 -1 -1 0.000 0 0 -1 0 0 3
	 2100 1200 2175 1275 2100 1350
2 1 0 1 0 7 10 -1 -1 0.000 0 0 -1 1 0 2
	1 1 1.00 120.00 135.00
	 2625 1275 3975 1275
2 1 0 1 0 7 50 -1 -1 0.000 0 0 -1 1 0 2
	1 1 1.00 120.00 135.00
	 3300 1275 3300 1650
2 1 0 1 0 7 20 -1 -1 0.000 0 0 -1 1 0 2
	1 1 1.00 120.00 135.00
	 4425 1275 4875 1275
2 1 0 1 0 7 12 -1 -1 0.000 0 0 -1 0 0 3
	 4425 1200 4500 1275 4425 1350
2 1 0 1 0 7 50 -1 -1 0.000 0 0 -1 1 0 3
	1 1 1.00 120.00 135.00
	 4650 1275 4650 1950 4950 1950
2 1 0 3 0 7 50 -1 -1 0.000 0 0 -1 0 0 1
	 4650 1275
2 1 0 1 0 7 20 -1 -1 0.000 0 0 -1 1 0 6
	1 1 1.00 120.00 135.00
	 5325 1275 5475 1275 5475 150 225 150 225 1125 750 1125
2 1 0 1 0 7 50 -1 -1 0.000 0 0 -1 1 0 3
	1 1 1.00 120.00 135.00
	 5025 3375 5400 3375 5400 5400
2 1 0 1 0 7 50 -1 -1 0.000 0 0 -1 1 0 6
	1 1 1.00 120.00 135.00
	 5400 1950 5625 1950 5625 4575 225 4575 225 3375 750 3375
2 1 0 1 0 7 50 -1 -1 0.000 0 0 -1 1 0 2
	1 1 1.00 120.00 135.00
	 1125 3375 1425 3375
2 1 0 1 0 7 50 -1 -1 0.000 0 0 -1 1 0 2
	1 1 1.00 120.00 135.00
	 1875 3375 2175 3375
2 1 0 1 0 7 25 -1 -1 0.000 0 0 -1 0 0 3
	 2100 3300 2175 3375 2100 3450
2 1 0 1 0 7 20 -1 -1 0.000 0 0 -1 1 0 2
	1 1 1.00 120.00 135.00
	 2625 3375 3975 3375
2 1 0 1 0 7 50 -1 -1 0.000 0 0 -1 1 0 2
	1 1 1.00 120.00 135.00
	 3225 3375 3225 3750
2 1 0 1 0 7 24 -1 -1 0.000 0 0 -1 0 0 3
	 4425 3450 4500 3375 4425 3300
2 1 0 1 0 7 40 -1 -1 0.000 0 0 -1 1 0 3
	1 1 1.00 120.00 135.00
	 4425 3375 5025 3375 5025 3000
2 1 0 1 0 7 50 -1 -1 0.000 0 0 -1 1 0 5
	1 1 1.00 120.00 135.00
	 5400 5850 5400 7200 150 7200 150 5175 750 5175
2 1 0 1 0 7 50 -1 -1 0.000 0 0 -1 1 0 5
	1 1 1.00 120.00 135.00
	 4500 6450 4500 7050 300 7050 300 5625 750 5625
2 1 0 1 0 7 50 -1 -1 0.000 0 0 -1 1 0 2
	1 1 1.00 120.00 135.00
	 1125 5625 1500 5625
2 1 0 1 0 7 50 -1 -1 0.000 0 0 -1 1 0 2
	1 1 1.00 120.00 135.00
	 1950 5625 2175 5625
2 1 0 1 0 7 50 -1 -1 0.000 0 0 -1 1 0 2
	1 1 1.00 120.00 135.00
	 2625 5625 3450 5625
2 1 0 1 0 7 50 -1 -1 0.000 0 0 -1 1 0 3
	1 1 1.00 120.00 135.00
	 3900 5625 4500 5625 4500 5250
2 1 0 3 0 7 60 -1 -1 0.000 0 0 -1 0 0 1
	 3000 5625
2 1 0 1 0 7 60 -1 -1 0.000 0 0 -1 1 0 2
	1 1 1.00 120.00 135.00
	 3000 5625 3000 6300
2 1 0 1 0 7 50 -1 -1 0.000 0 0 -1 0 1 5
	1 1 1.00 120.00 135.00
	 750 3150 75 3150 75 4725 4500 4725 4500 4800
2 1 0 1 0 7 70 -1 -1 0.000 0 0 -1 1 0 2
	1 1 1.00 120.00 135.00
	 2175 7575 2550 7575
2 2 0 1 0 7 70 -1 -1 0.000 0 0 -1 0 0 5
	 2550 7350 3450 7350 3450 7800 2550 7800 2550 7350
2 2 0 1 0 7 70 -1 -1 0.000 0 0 -1 0 0 5
	 2550 6300 3450 6300 3450 6750 2550 6750 2550 6300
2 1 0 1 0 7 57 -1 -1 0.000 0 0 -1 1 0 4
	1 1 1.00 120.00 135.00
	 1425 6600 450 6600 450 6075 750 6075
2 1 0 1 0 7 70 -1 -1 0.000 0 0 -1 1 0 2
	1 1 1.00 120.00 135.00
	 1800 6600 1350 6600
2 1 0 1 0 7 70 -1 -1 0.000 0 0 -1 1 0 4
	1 1 1.00 120.00 135.00
	 900 6600 450 6600 450 6075 750 6075
4 1 0 10 -1 0 10 0.0000 0 150 840 2400 1650 dd_t1 to d_t1\001
4 1 0 10 -1 0 10 0.0000 0 150 615 4200 1650 d_t1 to t1\001
4 1 0 20 -1 0 10 0.0000 0 150 840 2400 3750 dd_t2 to d_t2\001
4 1 0 20 -1 0 10 0.0000 0 150 615 4200 3750 d_t2 to t2\001
4 1 0 50 -1 0 10 0.0000 0 150 750 2400 6000 dd_x to d_x\001
4 1 0 50 -1 0 10 0.0000 0 150 525 3675 6000 d_x to x\001
4 1 0 70 -1 0 10 0.0000 0 105 285 3000 7617 time\001
4 1 0 70 -1 0 10 0.0000 0 135 870 3000 6900 To Workspace\001
4 1 0 70 -1 0 10 0.0000 0 150 375 3000 6567 x_dot\001
4 1 0 70 -1 0 10 0.0000 0 135 870 3000 7950 To Workspace\001
4 1 0 70 -1 0 10 0.0000 0 105 375 2025 7875 Clock\001
4 1 0 70 -1 0 10 0.0000 0 105 375 1950 6900 Clock\001
