#FIG 3.2
Landscape
Center
Inches
Letter  
100.00
Single
-2
1200 2
0 32 #aaaaaa
1 3 0 1 0 7 50 -1 -1 0.000 1 0.0000 1275 1432 150 150 1275 1432 1425 1432
1 3 0 1 0 7 50 -1 -1 0.000 1 0.0000 3825 1425 150 150 3825 1425 3975 1425
2 2 0 1 32 7 50 -1 -1 0.000 0 0 -1 0 0 5
	 2025 600 2625 600 2625 1050 2025 1050 2025 600
2 2 0 1 32 7 50 -1 -1 0.000 0 0 -1 0 0 5
	 2925 600 3525 600 3525 1050 2925 1050 2925 600
2 2 0 1 32 7 50 -1 -1 0.000 0 0 -1 0 0 5
	 2025 1800 2625 1800 2625 2250 2025 2250 2025 1800
2 2 0 1 0 7 50 -1 -1 0.000 0 0 -1 0 0 5
	 2025 1200 2625 1200 2625 1650 2025 1650 2025 1200
2 2 0 1 32 7 50 -1 -1 0.000 0 0 -1 0 0 5
	 2925 1800 3525 1800 3525 2250 2925 2250 2925 1800
2 2 0 1 0 7 50 -1 -1 0.000 0 0 -1 0 0 5
	 4425 1200 5025 1200 5025 1650 4425 1650 4425 1200
2 1 0 1 0 7 50 -1 -1 0.000 0 0 -1 1 0 2
	2 1 1.00 45.00 60.00
	 1425 1425 2025 1425
2 1 0 1 32 7 50 -1 -1 0.000 0 0 -1 1 0 2
	2 1 1.00 45.00 60.00
	 2625 2025 2925 2025
2 1 0 1 32 7 50 -1 -1 0.000 0 0 -1 1 0 2
	2 1 1.00 45.00 60.00
	 2625 825 2925 825
2 1 0 1 32 7 50 -1 -1 0.000 0 0 -1 1 0 3
	2 1 1.00 45.00 60.00
	 3525 825 3825 825 3825 1275
2 1 0 1 0 7 50 -1 -1 0.000 0 0 -1 1 0 2
	2 1 1.00 45.00 60.00
	 3975 1425 4425 1425
2 1 0 1 0 7 50 -1 -1 0.000 0 0 -1 1 0 2
	2 1 1.00 45.00 60.00
	 5025 1425 5550 1425
2 1 0 1 0 7 50 -1 -1 0.000 0 0 -1 1 0 4
	2 1 1.00 45.00 60.00
	 5250 1425 5250 2475 1275 2475 1275 1575
2 1 0 1 32 7 50 -1 -1 0.000 0 0 -1 0 0 2
	 3150 2025 3300 2025
2 1 0 1 32 7 51 -1 -1 0.000 0 0 -1 1 0 4
	2 1 1.00 45.00 60.00
	 1425 1425 1800 1425 1800 2025 2025 2025
2 1 0 1 0 7 50 -1 -1 0.000 0 0 -1 1 0 2
	2 1 1.00 45.00 60.00
	 825 1425 1125 1425
2 1 0 1 32 7 51 -1 -1 0.000 0 0 -1 1 0 4
	2 1 1.00 45.00 60.00
	 1425 1425 1800 1425 1800 825 2025 825
2 1 0 1 32 7 50 -1 -1 0.000 0 0 -1 1 0 3
	2 1 1.00 45.00 60.00
	 3525 2025 3825 2025 3825 1575
2 1 0 1 0 7 50 -1 -1 0.000 0 0 -1 1 0 2
	2 1 1.00 45.00 60.00
	 2625 1425 3675 1425
4 0 0 50 -1 3 12 0.0000 0 180 300 5250 1350 Y(s)\001
4 0 0 50 -1 3 12 0.0000 0 180 315 4578 1473 G(s)\001
4 0 32 50 -1 3 12 0.0000 0 90 75 3190 2162 s\001
4 0 32 50 -1 0 12 0.0000 0 135 90 3182 1993 1\001
4 0 32 50 -1 3 12 0.0000 0 90 75 3190 876 s\001
4 0 32 50 -1 3 12 0.0000 0 135 90 2263 868 k\001
4 0 32 50 -1 3 10 0.0000 0 105 75 2330 934 d\001
4 0 0 50 -1 3 12 0.0000 0 135 90 2256 1463 k\001
4 0 0 50 -1 3 10 0.0000 0 120 75 2337 1485 p\001
4 0 32 50 -1 3 12 0.0000 0 135 90 2263 2075 k\001
4 0 32 50 -1 3 10 0.0000 0 105 45 2352 2126 i\001
4 0 0 50 -1 32 12 0.0000 4 135 105 1217 1489 S\001
4 0 0 50 -1 3 12 0.0000 0 180 315 844 1343 R(s)\001
4 0 0 50 -1 0 12 0.0000 0 75 105 991 1567 +\001
4 0 0 50 -1 0 12 0.0000 0 15 90 1337 1610 _\001
4 0 0 50 -1 3 12 0.0000 0 180 315 1477 1368 E(s)\001
4 0 0 50 -1 32 12 0.0000 4 135 105 3778 1488 S\001
4 0 32 50 -1 0 12 0.0000 0 75 105 3868 1680 +\001
4 0 0 50 -1 0 12 0.0000 0 75 105 3570 1558 +\001
4 0 32 50 -1 0 12 0.0000 0 75 105 3690 1257 +\001
4 0 0 50 -1 3 12 0.0000 0 180 315 4023 1366 U(s)\001
