#FIG 3.2
Landscape
Center
Inches
Letter  
100.00
Single
-2
1200 2
6 4911 3700 7037 4300
6 4911 3742 6516 4282
4 2 0 52 -1 0 12 0.0000 0 180 1425 6516 3877 Damping Envelope\001
4 2 0 52 -1 0 12 0.0000 0 180 1605 6516 4057 Undamped Response\001
4 2 0 52 -1 0 12 0.0000 0 180 1305 6516 4237 Actual Response\001
-6
2 1 0 1 -1 -1 10 0 -1 0.000 0 0 0 0 0 2
	 6587 4177 6962 4177
2 1 2 1 -1 -1 10 0 -1 3.000 0 1 0 0 0 2
	 6587 3823 6962 3823
2 1 1 1 -1 -1 10 0 -1 6.000 0 0 0 0 0 2
	 6587 4000 6962 4000
2 2 0 1 0 7 53 -1 20 0.000 0 0 -1 0 0 5
	 4937 3700 7037 3700 7037 4300 4937 4300 4937 3700
-6
2 1 0 1 -1 -1 10 0 -1 0.000 0 0 0 0 0 2
	 1575 4146 1650 4146
2 1 0 1 -1 -1 10 0 -1 0.000 0 0 0 0 0 2
	 7125 4146 7050 4146
2 1 0 1 -1 -1 10 0 -1 0.000 0 0 0 0 0 2
	 1575 3510 1650 3510
2 1 0 1 -1 -1 10 0 -1 0.000 0 0 0 0 0 2
	 7125 3510 7050 3510
2 1 0 1 -1 -1 10 0 -1 0.000 0 0 0 0 0 2
	 1575 2875 1650 2875
2 1 0 1 -1 -1 10 0 -1 0.000 0 0 0 0 0 2
	 7125 2875 7050 2875
2 1 0 1 -1 -1 10 0 -1 0.000 0 0 0 0 0 2
	 1575 2240 1650 2240
2 1 0 1 -1 -1 10 0 -1 0.000 0 0 0 0 0 2
	 7125 2240 7050 2240
2 1 0 1 -1 -1 10 0 -1 0.000 0 0 0 0 0 2
	 1575 1604 1650 1604
2 1 0 1 -1 -1 10 0 -1 0.000 0 0 0 0 0 2
	 7125 1604 7050 1604
2 1 0 1 -1 -1 10 0 -1 0.000 0 0 0 0 0 2
	 1575 4400 1575 4325
2 1 0 1 -1 -1 10 0 -1 0.000 0 0 0 0 0 2
	 1575 1350 1575 1425
2 1 0 1 -1 -1 10 0 -1 0.000 0 0 0 0 0 2
	 2429 4400 2429 4325
2 1 0 1 -1 -1 10 0 -1 0.000 0 0 0 0 0 2
	 2429 1350 2429 1425
2 1 0 1 -1 -1 10 0 -1 0.000 0 0 0 0 0 2
	 3283 4400 3283 4325
2 1 0 1 -1 -1 10 0 -1 0.000 0 0 0 0 0 2
	 3283 1350 3283 1425
2 1 0 1 -1 -1 10 0 -1 0.000 0 0 0 0 0 2
	 4137 4400 4137 4325
2 1 0 1 -1 -1 10 0 -1 0.000 0 0 0 0 0 2
	 4137 1350 4137 1425
2 1 0 1 -1 -1 10 0 -1 0.000 0 0 0 0 0 2
	 4990 4400 4990 4325
2 1 0 1 -1 -1 10 0 -1 0.000 0 0 0 0 0 2
	 4990 1350 4990 1425
2 1 0 1 -1 -1 10 0 -1 0.000 0 0 0 0 0 2
	 5844 4400 5844 4325
2 1 0 1 -1 -1 10 0 -1 0.000 0 0 0 0 0 2
	 5844 1350 5844 1425
2 1 0 1 -1 -1 10 0 -1 0.000 0 0 0 0 0 2
	 6698 4400 6698 4325
2 1 0 1 -1 -1 10 0 -1 0.000 0 0 0 0 0 2
	 6698 1350 6698 1425
2 1 2 1 -1 -1 10 0 -1 6.000 0 1 0 0 0 2
	 1575 2875 7125 2875
2 1 0 1 -1 -1 10 0 -1 0.000 0 0 0 0 0 5
	 1575 1350 1575 4400 7125 4400 7125 1350 1575 1350
2 1 2 1 -1 -1 10 0 -1 3.000 0 1 0 0 0 250
	 1575 1604 1597 1621 1620 1637 1642 1653 1664 1669 1686 1684
	 1709 1700 1731 1715 1753 1730 1776 1745 1798 1760 1820 1774
	 1842 1788 1865 1802 1887 1816 1909 1830 1932 1844 1954 1857
	 1976 1870 1998 1883 2021 1896 2043 1909 2065 1921 2088 1934
	 2110 1946 2132 1958 2155 1970 2177 1982 2199 1993 2221 2005
	 2244 2016 2266 2027 2288 2038 2311 2049 2333 2060 2355 2070
	 2377 2081 2400 2091 2422 2101 2444 2111 2467 2121 2489 2131
	 2511 2140 2533 2150 2556 2159 2578 2169 2600 2178 2623 2187
	 2645 2196 2667 2205 2689 2213 2712 2222 2734 2230 2756 2239
	 2779 2247 2801 2255 2823 2263 2845 2271 2868 2279 2890 2287
	 2912 2294 2935 2302 2957 2309 2979 2317 3002 2324 3024 2331
	 3046 2338 3068 2345 3091 2352 3113 2359 3135 2365 3158 2372
	 3180 2378 3202 2385 3224 2391 3247 2398 3269 2404 3291 2410
	 3314 2416 3336 2422 3358 2428 3380 2433 3403 2439 3425 2445
	 3447 2450 3470 2456 3492 2461 3514 2467 3536 2472 3559 2477
	 3581 2482 3603 2488 3626 2493 3648 2497 3670 2502 3692 2507
	 3715 2512 3737 2517 3759 2521 3782 2526 3804 2530 3826 2535
	 3848 2539 3871 2544 3893 2548 3915 2552 3938 2556 3960 2561
	 3982 2565 4005 2569 4027 2573 4049 2577 4071 2580 4094 2584
	 4116 2588 4138 2592 4161 2595 4183 2599 4205 2603 4227 2606
	 4250 2610 4272 2613 4294 2616 4317 2620 4339 2623 4361 2626
	 4383 2630 4406 2633 4428 2636 4450 2639 4473 2642 4495 2645
	 4517 2648 4539 2651 4562 2654 4584 2657 4606 2660 4629 2662
	 4651 2665 4673 2668 4695 2671 4718 2673 4740 2676 4762 2678
	 4785 2681 4807 2684 4829 2686 4852 2688 4874 2691 4896 2693
	 4918 2696 4941 2698 4963 2700 4985 2702 5008 2705 5030 2707
	 5052 2709 5074 2711 5097 2713 5119 2715 5141 2718 5164 2720
	 5186 2722 5208 2724 5230 2726 5253 2728 5275 2729 5297 2731
	 5320 2733 5342 2735 5364 2737 5386 2739 5409 2740 5431 2742
	 5453 2744 5476 2746 5498 2747 5520 2749 5542 2751 5565 2752
	 5587 2754 5609 2755 5632 2757 5654 2758 5676 2760 5698 2761
	 5721 2763 5743 2764 5765 2766 5788 2767 5810 2769 5832 2770
	 5855 2771 5877 2773 5899 2774 5921 2775 5944 2777 5966 2778
	 5988 2779 6011 2780 6033 2782 6055 2783 6077 2784 6100 2785
	 6122 2786 6144 2787 6167 2789 6189 2790 6211 2791 6233 2792
	 6256 2793 6278 2794 6300 2795 6323 2796 6345 2797 6367 2798
	 6389 2799 6412 2800 6434 2801 6456 2802 6479 2803 6501 2804
	 6523 2805 6545 2806 6568 2807 6590 2808 6612 2808 6635 2809
	 6657 2810 6679 2811 6702 2812 6724 2813 6746 2813 6768 2814
	 6791 2815 6813 2816 6835 2817 6858 2817 6880 2818 6902 2819
	 6924 2820 6947 2820 6969 2821 6991 2822 7014 2822 7036 2823
	 7058 2824 7080 2824 7103 2825 7125 2826
2 1 2 1 -1 -1 10 0 -1 3.000 0 1 0 0 0 250
	 1575 4146 1597 4129 1620 4113 1642 4097 1664 4081 1686 4066
	 1709 4050 1731 4035 1753 4020 1776 4005 1798 3990 1820 3976
	 1842 3962 1865 3948 1887 3934 1909 3920 1932 3906 1954 3893
	 1976 3880 1998 3867 2021 3854 2043 3841 2065 3829 2088 3816
	 2110 3804 2132 3792 2155 3780 2177 3768 2199 3757 2221 3745
	 2244 3734 2266 3723 2288 3712 2311 3701 2333 3690 2355 3680
	 2377 3669 2400 3659 2422 3649 2444 3639 2467 3629 2489 3619
	 2511 3610 2533 3600 2556 3591 2578 3581 2600 3572 2623 3563
	 2645 3554 2667 3545 2689 3537 2712 3528 2734 3520 2756 3511
	 2779 3503 2801 3495 2823 3487 2845 3479 2868 3471 2890 3463
	 2912 3456 2935 3448 2957 3441 2979 3433 3002 3426 3024 3419
	 3046 3412 3068 3405 3091 3398 3113 3391 3135 3385 3158 3378
	 3180 3372 3202 3365 3224 3359 3247 3352 3269 3346 3291 3340
	 3314 3334 3336 3328 3358 3322 3380 3317 3403 3311 3425 3305
	 3447 3300 3470 3294 3492 3289 3514 3283 3536 3278 3559 3273
	 3581 3268 3603 3262 3626 3257 3648 3253 3670 3248 3692 3243
	 3715 3238 3737 3233 3759 3229 3782 3224 3804 3220 3826 3215
	 3848 3211 3871 3206 3893 3202 3915 3198 3938 3194 3960 3189
	 3982 3185 4005 3181 4027 3177 4049 3173 4071 3170 4094 3166
	 4116 3162 4138 3158 4161 3155 4183 3151 4205 3147 4227 3144
	 4250 3140 4272 3137 4294 3134 4317 3130 4339 3127 4361 3124
	 4383 3120 4406 3117 4428 3114 4450 3111 4473 3108 4495 3105
	 4517 3102 4539 3099 4562 3096 4584 3093 4606 3090 4629 3088
	 4651 3085 4673 3082 4695 3079 4718 3077 4740 3074 4762 3072
	 4785 3069 4807 3066 4829 3064 4852 3062 4874 3059 4896 3057
	 4918 3054 4941 3052 4963 3050 4985 3048 5008 3045 5030 3043
	 5052 3041 5074 3039 5097 3037 5119 3035 5141 3032 5164 3030
	 5186 3028 5208 3026 5230 3024 5253 3022 5275 3021 5297 3019
	 5320 3017 5342 3015 5364 3013 5386 3011 5409 3010 5431 3008
	 5453 3006 5476 3004 5498 3003 5520 3001 5542 2999 5565 2998
	 5587 2996 5609 2995 5632 2993 5654 2992 5676 2990 5698 2989
	 5721 2987 5743 2986 5765 2984 5788 2983 5810 2981 5832 2980
	 5855 2979 5877 2977 5899 2976 5921 2975 5944 2973 5966 2972
	 5988 2971 6011 2970 6033 2968 6055 2967 6077 2966 6100 2965
	 6122 2964 6144 2963 6167 2961 6189 2960 6211 2959 6233 2958
	 6256 2957 6278 2956 6300 2955 6323 2954 6345 2953 6367 2952
	 6389 2951 6412 2950 6434 2949 6456 2948 6479 2947 6501 2946
	 6523 2945 6545 2944 6568 2943 6590 2942 6612 2942 6635 2941
	 6657 2940 6679 2939 6702 2938 6724 2937 6746 2937 6768 2936
	 6791 2935 6813 2934 6835 2933 6858 2933 6880 2932 6902 2931
	 6924 2930 6947 2930 6969 2929 6991 2928 7014 2928 7036 2927
	 7058 2926 7080 2926 7103 2925 7125 2924
2 1 0 1 -1 -1 10 0 -1 0.000 0 0 0 0 0 250
	 1575 2875 1597 2797 1620 2721 1642 2648 1664 2578 1686 2510
	 1709 2446 1731 2385 1753 2328 1776 2274 1798 2225 1820 2179
	 1842 2137 1865 2099 1887 2065 1909 2035 1932 2009 1954 1988
	 1976 1970 1998 1957 2021 1948 2043 1942 2065 1941 2088 1943
	 2110 1949 2132 1958 2155 1971 2177 1987 2199 2006 2221 2028
	 2244 2053 2266 2081 2288 2111 2311 2144 2333 2178 2355 2214
	 2377 2253 2400 2292 2422 2333 2444 2375 2467 2418 2489 2462
	 2511 2506 2533 2550 2556 2595 2578 2639 2600 2684 2623 2728
	 2645 2771 2667 2814 2689 2856 2712 2897 2734 2937 2756 2975
	 2779 3012 2801 3048 2823 3082 2845 3114 2868 3145 2890 3173
	 2912 3200 2935 3225 2957 3247 2979 3268 3002 3286 3024 3303
	 3046 3317 3068 3329 3091 3339 3113 3347 3135 3353 3158 3357
	 3180 3358 3202 3358 3224 3356 3247 3352 3269 3346 3291 3339
	 3314 3329 3336 3319 3358 3306 3380 3293 3403 3278 3425 3261
	 3447 3244 3470 3226 3492 3206 3514 3186 3536 3165 3559 3144
	 3581 3122 3603 3100 3626 3077 3648 3054 3670 3031 3692 3008
	 3715 2985 3737 2962 3759 2939 3782 2917 3804 2895 3826 2873
	 3848 2853 3871 2832 3893 2813 3915 2794 3938 2776 3960 2759
	 3982 2743 4005 2727 4027 2713 4049 2700 4071 2688 4094 2676
	 4116 2666 4138 2657 4161 2649 4183 2643 4205 2637 4227 2632
	 4250 2629 4272 2626 4294 2625 4317 2625 4339 2625 4361 2627
	 4383 2630 4406 2633 4428 2638 4450 2643 4473 2649 4495 2655
	 4517 2663 4539 2671 4562 2680 4584 2689 4606 2699 4629 2709
	 4651 2720 4673 2731 4695 2742 4718 2753 4740 2765 4762 2777
	 4785 2789 4807 2801 4829 2813 4852 2825 4874 2836 4896 2848
	 4918 2859 4941 2871 4963 2882 4985 2892 5008 2903 5030 2912
	 5052 2922 5074 2931 5097 2940 5119 2948 5141 2955 5164 2963
	 5186 2969 5208 2975 5230 2981 5253 2986 5275 2990 5297 2994
	 5320 2997 5342 3000 5364 3002 5386 3003 5409 3004 5431 3005
	 5453 3004 5476 3004 5498 3003 5520 3001 5542 2999 5565 2997
	 5587 2994 5609 2990 5632 2987 5654 2983 5676 2978 5698 2974
	 5721 2969 5743 2963 5765 2958 5788 2952 5810 2947 5832 2941
	 5855 2935 5877 2929 5899 2922 5921 2916 5944 2910 5966 2904
	 5988 2898 6011 2892 6033 2886 6055 2880 6077 2874 6100 2869
	 6122 2863 6144 2858 6167 2853 6189 2848 6211 2844 6233 2839
	 6256 2835 6278 2831 6300 2828 6323 2825 6345 2822 6367 2819
	 6389 2817 6412 2814 6434 2813 6456 2811 6479 2810 6501 2809
	 6523 2808 6545 2808 6568 2808 6590 2808 6612 2809 6635 2809
	 6657 2810 6679 2811 6702 2813 6724 2815 6746 2816 6768 2818
	 6791 2821 6813 2823 6835 2825 6858 2828 6880 2831 6902 2834
	 6924 2837 6947 2840 6969 2843 6991 2846 7014 2849 7036 2852
	 7058 2855 7080 2859 7103 2862 7125 2865
2 1 0 1 -1 -1 10 0 -1 0.000 0 0 0 0 0 5
	 1575 1350 1575 4400 7125 4400 7125 1350 1575 1350
2 1 1 1 -1 -1 54 0 -1 6.000 0 0 0 0 0 250
	 1575 2875 1597 2796 1620 2717 1642 2639 1664 2562 1686 2486
	 1709 2411 1731 2339 1753 2268 1776 2200 1798 2134 1820 2071
	 1842 2011 1865 1955 1887 1902 1909 1853 1932 1808 1954 1767
	 1976 1731 1998 1699 2021 1671 2043 1648 2065 1630 2088 1616
	 2110 1608 2132 1604 2155 1606 2177 1612 2199 1623 2221 1639
	 2244 1660 2266 1685 2288 1715 2311 1750 2333 1789 2355 1832
	 2377 1879 2400 1930 2422 1985 2444 2043 2467 2105 2489 2169
	 2511 2236 2533 2306 2556 2377 2578 2451 2600 2526 2623 2603
	 2645 2681 2667 2759 2689 2838 2712 2917 2734 2996 2756 3075
	 2779 3153 2801 3229 2823 3304 2845 3378 2868 3450 2890 3519
	 2912 3586 2935 3650 2957 3711 2979 3769 3002 3824 3024 3874
	 3046 3921 3068 3964 3091 4003 3113 4037 3135 4067 3158 4092
	 3180 4112 3202 4128 3224 4139 3247 4145 3269 4146 3291 4142
	 3314 4133 3336 4119 3358 4100 3380 4077 3403 4049 3425 4017
	 3447 3980 3470 3938 3492 3893 3514 3844 3536 3791 3559 3734
	 3581 3674 3603 3611 3626 3545 3648 3477 3670 3406 3692 3333
	 3715 3259 3737 3183 3759 3105 3782 3027 3804 2948 3826 2869
	 3848 2790 3871 2711 3893 2633 3915 2556 3938 2480 3960 2406
	 3982 2333 4005 2263 4027 2195 4049 2129 4071 2067 4094 2007
	 4116 1951 4138 1899 4161 1850 4183 1805 4205 1765 4227 1728
	 4250 1696 4272 1669 4294 1647 4317 1629 4339 1616 4361 1607
	 4383 1604 4406 1606 4428 1613 4450 1624 4473 1640 4495 1661
	 4517 1687 4539 1718 4562 1753 4584 1792 4606 1835 4629 1883
	 4651 1934 4673 1989 4695 2048 4718 2109 4740 2174 4762 2241
	 4785 2311 4807 2383 4829 2457 4852 2532 4874 2609 4896 2687
	 4918 2765 4941 2844 4963 2923 4985 3002 5008 3081 5030 3158
	 5052 3235 5074 3310 5097 3383 5119 3455 5141 3524 5164 3591
	 5186 3655 5208 3716 5230 3773 5253 3827 5275 3878 5297 3925
	 5320 3967 5342 4005 5364 4039 5386 4069 5409 4094 5431 4114
	 5453 4129 5476 4139 5498 4145 5520 4145 5542 4141 5565 4132
	 5587 4118 5609 4099 5632 4075 5654 4047 5676 4014 5698 3977
	 5721 3935 5743 3890 5765 3840 5788 3787 5810 3730 5832 3670
	 5855 3607 5877 3540 5899 3472 5921 3401 5944 3328 5966 3253
	 5988 3177 6011 3100 6033 3021 6055 2942 6077 2863 6100 2784
	 6122 2706 6144 2628 6167 2551 6189 2475 6211 2400 6233 2328
	 6256 2258 6278 2190 6300 2125 6323 2062 6345 2003 6367 1947
	 6389 1895 6412 1846 6434 1802 6456 1762 6479 1726 6501 1694
	 6523 1667 6545 1645 6568 1628 6590 1615 6612 1607 6635 1604
	 6657 1606 6679 1613 6702 1625 6724 1642 6746 1663 6768 1689
	 6791 1720 6813 1755 6835 1795 6858 1839 6880 1886 6902 1938
	 6924 1993 6947 2052 6969 2114 6991 2179 7014 2246 7036 2316
	 7058 2388 7080 2462 7103 2538 7125 2614
4 2 -1 0 -1 0 10 0.0000 4 105 135 1500 4208 -1\001
4 2 -1 0 -1 0 10 0.0000 4 105 255 1500 3572 -0.5\001
4 2 -1 0 -1 0 10 0.0000 4 105 105 1500 2937  0\001
4 2 -1 0 -1 0 10 0.0000 4 105 225 1500 2302  0.5\001
4 2 -1 0 -1 0 10 0.0000 4 105 105 1500 1666  1\001
4 1 -1 0 -1 0 10 0.0000 4 105 105 1575 4587  0\001
4 1 -1 0 -1 0 10 0.0000 4 105 225 2429 4587  0.5\001
4 1 -1 0 -1 0 10 0.0000 4 105 105 3283 4587  1\001
4 1 -1 0 -1 0 10 0.0000 4 105 225 4137 4587  1.5\001
4 1 -1 0 -1 0 10 0.0000 4 105 105 4990 4587  2\001
4 1 -1 0 -1 0 10 0.0000 4 105 225 5844 4587  2.5\001
4 1 -1 0 -1 0 10 0.0000 4 105 105 6698 4587  3\001
4 1 -1 0 -1 0 12 0.0000 4 180 660 4350 4774 Time (s)\001
4 1 0 52 -1 0 12 1.5708 0 180 1050 1217 2881 Displacement\001
