#FIG 3.2  Produced by xfig version 3.2.5
Landscape
Center
Inches
Letter  
100.00
Single
-2
1200 2
5 1 1 1 0 7 50 -1 -1 4.000 0 0 0 0 4350.000 4499.624 1350 4500 5044 1581 7350 4500
5 1 1 1 0 7 50 -1 -1 4.000 0 0 0 0 4350.000 4499.895 3375 4500 4561 3548 5325 4500
5 1 1 1 0 7 50 -1 -1 4.000 0 0 0 0 4350.000 4498.796 2325 4500 3649 2599 6375 4500
5 1 0 1 0 7 50 -1 -1 4.000 0 1 1 0 4346.248 4497.315 2925 2100 2415 2488 2099 2849
	2 1 1.00 45.00 60.00
5 1 0 1 0 7 50 -1 -1 4.000 0 0 1 0 4369.199 4477.302 5775 2100 6360 2563 6600 2849
	2 1 1.00 45.00 60.00
6 6904 1983 8163 2918
6 7129 2008 8118 2768
# Begin plot #1
2 1 2 1 -1 -1 10 0 -1 3.000 0 1 0 0 0 50
	 7129 2356 7149 2355 7169 2353 7190 2351 7210 2349 7230 2348
	 7250 2346 7270 2343 7290 2341 7311 2339 7331 2336 7351 2334
	 7371 2331 7391 2328 7412 2325 7432 2322 7452 2319 7472 2315
	 7492 2312 7512 2308 7533 2304 7553 2299 7573 2295 7593 2290
	 7613 2285 7634 2280 7654 2275 7674 2269 7694 2263 7714 2257
	 7735 2250 7755 2243 7775 2236 7795 2229 7815 2221 7835 2212
	 7856 2203 7876 2194 7896 2184 7916 2174 7936 2163 7957 2152
	 7977 2140 7997 2128 8017 2115 8037 2101 8057 2087 8078 2072
	 8098 2056 8118 2039
-6
# End plot #1
6 7129 2008 8118 2768
# Begin plot #2
2 1 2 1 -1 -1 10 0 -1 3.000 0 1 0 0 0 50
	 7129 2420 7149 2421 7169 2423 7190 2425 7210 2427 7230 2428
	 7250 2430 7270 2433 7290 2435 7311 2437 7331 2440 7351 2442
	 7371 2445 7391 2448 7412 2451 7432 2454 7452 2457 7472 2461
	 7492 2464 7512 2468 7533 2472 7553 2477 7573 2481 7593 2486
	 7613 2491 7634 2496 7654 2501 7674 2507 7694 2513 7714 2519
	 7735 2526 7755 2533 7775 2540 7795 2547 7815 2555 7835 2564
	 7856 2573 7876 2582 7896 2592 7916 2602 7936 2613 7957 2624
	 7977 2636 7997 2648 8017 2661 8037 2675 8057 2689 8078 2704
	 8098 2720 8118 2737
-6
2 1 0 1 -1 -1 10 0 -1 0.000 0 0 0 0 0 2
	 7129 2768 7204 2768
2 1 0 1 -1 -1 10 0 -1 0.000 0 0 0 0 0 2
	 8118 2768 8043 2768
2 1 0 1 -1 -1 10 0 -1 0.000 0 0 0 0 0 2
	 7129 2388 7204 2388
2 1 0 1 -1 -1 10 0 -1 0.000 0 0 0 0 0 2
	 8118 2388 8043 2388
2 1 0 1 -1 -1 10 0 -1 0.000 0 0 0 0 0 2
	 7129 2008 7204 2008
2 1 0 1 -1 -1 10 0 -1 0.000 0 0 0 0 0 2
	 8118 2008 8043 2008
2 1 0 1 -1 -1 10 0 -1 0.000 0 0 0 0 0 2
	 7129 2768 7129 2693
2 1 0 1 -1 -1 10 0 -1 0.000 0 0 0 0 0 2
	 7129 2008 7129 2083
2 1 0 1 -1 -1 10 0 -1 0.000 0 0 0 0 0 2
	 8118 2768 8118 2693
2 1 0 1 -1 -1 10 0 -1 0.000 0 0 0 0 0 2
	 8118 2008 8118 2083
2 1 2 1 -1 -1 10 0 -1 6.000 0 1 0 0 0 2
	 7129 2388 8118 2388
2 1 0 1 -1 -1 10 0 -1 0.000 0 0 0 0 0 5
	 7129 2008 7129 2768 8118 2768 8118 2008 7129 2008
# End plot #2
2 1 0 1 -1 -1 10 0 -1 0.000 0 0 0 0 0 5
	 7129 2008 7129 2768 8118 2768 8118 2008 7129 2008
4 2 -1 0 -1 0 8 0.0000 4 75 165 7069 2818 -12\001
4 2 -1 0 -1 0 8 0.0000 4 75 90 7069 2438  0\001
4 2 -1 0 -1 0 8 0.0000 4 75 150 7069 2058  12\001
4 1 -1 0 -1 0 8 0.0000 4 75 90 7129 2918  0\001
4 1 -1 0 -1 0 8 0.0000 4 75 90 8118 2918  3\001
4 1 -1 0 -1 0 8 0.0000 4 90 255 7623 2918 Time\001
-6
6 425 2133 1684 3068
6 590 2158 1639 2918
# Begin plot #1
2 1 2 1 -1 -1 10 0 -1 3.000 0 1 0 0 0 50
	 590 2158 611 2176 633 2193 654 2210 676 2226 697 2241
	 718 2255 740 2268 761 2281 783 2293 804 2305 825 2316
	 847 2327 868 2337 890 2347 911 2356 933 2364 954 2373
	 975 2381 997 2388 1018 2395 1040 2402 1061 2409 1082 2415
	 1104 2421 1125 2426 1147 2432 1168 2437 1189 2442 1211 2446
	 1232 2451 1254 2455 1275 2459 1296 2463 1318 2466 1339 2470
	 1361 2473 1382 2476 1404 2479 1425 2482 1446 2484 1468 2487
	 1489 2489 1511 2492 1532 2494 1553 2496 1575 2498 1596 2500
	 1618 2502 1639 2504
-6
# End plot #1
6 590 2158 1639 2918
# Begin plot #2
2 1 2 1 -1 -1 10 0 -1 3.000 0 1 0 0 0 50
	 590 2918 611 2900 633 2883 654 2866 676 2850 697 2835
	 718 2821 740 2808 761 2795 783 2783 804 2771 825 2760
	 847 2749 868 2739 890 2729 911 2720 933 2712 954 2703
	 975 2695 997 2688 1018 2681 1040 2674 1061 2667 1082 2661
	 1104 2655 1125 2650 1147 2644 1168 2639 1189 2634 1211 2630
	 1232 2625 1254 2621 1275 2617 1296 2613 1318 2610 1339 2606
	 1361 2603 1382 2600 1404 2597 1425 2594 1446 2592 1468 2589
	 1489 2587 1511 2584 1532 2582 1553 2580 1575 2578 1596 2576
	 1618 2574 1639 2572
-6
2 1 0 1 -1 -1 10 0 -1 0.000 0 0 0 0 0 2
	 590 2918 665 2918
2 1 0 1 -1 -1 10 0 -1 0.000 0 0 0 0 0 2
	 1639 2918 1564 2918
2 1 0 1 -1 -1 10 0 -1 0.000 0 0 0 0 0 2
	 590 2538 665 2538
2 1 0 1 -1 -1 10 0 -1 0.000 0 0 0 0 0 2
	 1639 2538 1564 2538
2 1 0 1 -1 -1 10 0 -1 0.000 0 0 0 0 0 2
	 590 2158 665 2158
2 1 0 1 -1 -1 10 0 -1 0.000 0 0 0 0 0 2
	 1639 2158 1564 2158
2 1 0 1 -1 -1 10 0 -1 0.000 0 0 0 0 0 2
	 590 2918 590 2843
2 1 0 1 -1 -1 10 0 -1 0.000 0 0 0 0 0 2
	 590 2158 590 2233
2 1 0 1 -1 -1 10 0 -1 0.000 0 0 0 0 0 2
	 1639 2918 1639 2843
2 1 0 1 -1 -1 10 0 -1 0.000 0 0 0 0 0 2
	 1639 2158 1639 2233
2 1 2 1 -1 -1 10 0 -1 6.000 0 1 0 0 0 2
	 590 2538 1639 2538
2 1 0 1 -1 -1 10 0 -1 0.000 0 0 0 0 0 5
	 590 2158 590 2918 1639 2918 1639 2158 590 2158
# End plot #2
2 1 0 1 -1 -1 10 0 -1 0.000 0 0 0 0 0 5
	 590 2158 590 2918 1639 2918 1639 2158 590 2158
4 2 -1 0 -1 0 8 0.0000 4 75 105 530 2968 -1\001
4 2 -1 0 -1 0 8 0.0000 4 75 90 530 2588  0\001
4 2 -1 0 -1 0 8 0.0000 4 75 90 530 2208  1\001
4 1 -1 0 -1 0 8 0.0000 4 75 90 590 3068  0\001
4 1 -1 0 -1 0 8 0.0000 4 75 90 1639 3068  3\001
4 1 -1 0 -1 0 8 0.0000 4 90 255 1114 3068 Time\001
-6
6 3324 573 4583 1483
6 3489 573 4538 1333
# Begin plot #1
2 1 2 1 -1 -1 10 0 -1 3.000 0 1 0 0 0 50
	 3489 636 3510 636 3532 636 3553 636 3575 636 3596 636
	 3617 636 3639 636 3660 636 3682 636 3703 636 3724 636
	 3746 636 3767 636 3789 636 3810 636 3832 636 3853 636
	 3874 636 3896 636 3917 636 3939 636 3960 636 3981 636
	 4003 636 4024 636 4046 636 4067 636 4088 636 4110 636
	 4131 636 4153 636 4174 636 4195 636 4217 636 4238 636
	 4260 636 4281 636 4303 636 4324 636 4345 636 4367 636
	 4388 636 4410 636 4431 636 4452 636 4474 636 4495 636
	 4517 636 4538 636
-6
# End plot #1
6 3489 573 4538 1333
# Begin plot #2
2 1 2 1 -1 -1 10 0 -1 3.000 0 1 0 0 0 50
	 3489 1270 3510 1270 3532 1270 3553 1270 3575 1270 3596 1270
	 3617 1270 3639 1270 3660 1270 3682 1270 3703 1270 3724 1270
	 3746 1270 3767 1270 3789 1270 3810 1270 3832 1270 3853 1270
	 3874 1270 3896 1270 3917 1270 3939 1270 3960 1270 3981 1270
	 4003 1270 4024 1270 4046 1270 4067 1270 4088 1270 4110 1270
	 4131 1270 4153 1270 4174 1270 4195 1270 4217 1270 4238 1270
	 4260 1270 4281 1270 4303 1270 4324 1270 4345 1270 4367 1270
	 4388 1270 4410 1270 4431 1270 4452 1270 4474 1270 4495 1270
	 4517 1270 4538 1270
-6
2 1 0 1 -1 -1 10 0 -1 0.000 0 0 0 0 0 2
	 3489 1270 3564 1270
2 1 0 1 -1 -1 10 0 -1 0.000 0 0 0 0 0 2
	 4538 1270 4463 1270
2 1 0 1 -1 -1 10 0 -1 0.000 0 0 0 0 0 2
	 3489 953 3564 953
2 1 0 1 -1 -1 10 0 -1 0.000 0 0 0 0 0 2
	 4538 953 4463 953
2 1 0 1 -1 -1 10 0 -1 0.000 0 0 0 0 0 2
	 3489 636 3564 636
2 1 0 1 -1 -1 10 0 -1 0.000 0 0 0 0 0 2
	 4538 636 4463 636
2 1 0 1 -1 -1 10 0 -1 0.000 0 0 0 0 0 2
	 3489 1333 3489 1258
2 1 0 1 -1 -1 10 0 -1 0.000 0 0 0 0 0 2
	 3489 573 3489 648
2 1 0 1 -1 -1 10 0 -1 0.000 0 0 0 0 0 2
	 4538 1333 4538 1258
2 1 0 1 -1 -1 10 0 -1 0.000 0 0 0 0 0 2
	 4538 573 4538 648
2 1 2 1 -1 -1 10 0 -1 6.000 0 1 0 0 0 2
	 3489 953 4538 953
2 1 0 1 -1 -1 10 0 -1 0.000 0 0 0 0 0 5
	 3489 573 3489 1333 4538 1333 4538 573 3489 573
# End plot #2
2 1 0 1 -1 -1 10 0 -1 0.000 0 0 0 0 0 5
	 3489 573 3489 1333 4538 1333 4538 573 3489 573
4 2 -1 0 -1 0 8 0.0000 4 75 105 3429 1320 -1\001
4 2 -1 0 -1 0 8 0.0000 4 75 90 3429 1003  0\001
4 2 -1 0 -1 0 8 0.0000 4 75 90 3429 686  1\001
4 1 -1 0 -1 0 8 0.0000 4 75 90 3489 1483  0\001
4 1 -1 0 -1 0 8 0.0000 4 75 90 4538 1483  3\001
4 1 -1 0 -1 0 8 0.0000 4 90 255 4013 1483 Time\001
-6
6 5724 873 6983 1808
6 5889 898 6938 1658
# Begin plot #1
2 1 2 1 -1 -1 10 0 -1 3.000 0 1 0 0 0 50
	 5889 1183 5910 1181 5932 1178 5953 1176 5975 1173 5996 1171
	 6017 1168 6039 1165 6060 1162 6082 1160 6103 1157 6124 1154
	 6146 1151 6167 1147 6189 1144 6210 1141 6232 1137 6253 1134
	 6274 1130 6296 1127 6317 1123 6339 1119 6360 1115 6381 1111
	 6403 1107 6424 1103 6446 1098 6467 1094 6488 1089 6510 1085
	 6531 1080 6553 1075 6574 1070 6595 1065 6617 1060 6638 1054
	 6660 1049 6681 1043 6703 1037 6724 1031 6745 1025 6767 1019
	 6788 1012 6810 1006 6831 999 6852 992 6874 985 6895 978
	 6917 970 6938 963
-6
# End plot #1
6 5889 898 6938 1658
# Begin plot #2
2 1 2 1 -1 -1 10 0 -1 3.000 0 1 0 0 0 50
	 5889 1373 5910 1375 5932 1378 5953 1380 5975 1383 5996 1385
	 6017 1388 6039 1391 6060 1394 6082 1396 6103 1399 6124 1402
	 6146 1405 6167 1409 6189 1412 6210 1415 6232 1419 6253 1422
	 6274 1426 6296 1429 6317 1433 6339 1437 6360 1441 6381 1445
	 6403 1449 6424 1453 6446 1458 6467 1462 6488 1467 6510 1471
	 6531 1476 6553 1481 6574 1486 6595 1491 6617 1496 6638 1502
	 6660 1507 6681 1513 6703 1519 6724 1525 6745 1531 6767 1537
	 6788 1544 6810 1550 6831 1557 6852 1564 6874 1571 6895 1578
	 6917 1586 6938 1593
-6
2 1 0 1 -1 -1 10 0 -1 0.000 0 0 0 0 0 2
	 5889 1658 5964 1658
2 1 0 1 -1 -1 10 0 -1 0.000 0 0 0 0 0 2
	 6938 1658 6863 1658
2 1 0 1 -1 -1 10 0 -1 0.000 0 0 0 0 0 2
	 5889 1278 5964 1278
2 1 0 1 -1 -1 10 0 -1 0.000 0 0 0 0 0 2
	 6938 1278 6863 1278
2 1 0 1 -1 -1 10 0 -1 0.000 0 0 0 0 0 2
	 5889 898 5964 898
2 1 0 1 -1 -1 10 0 -1 0.000 0 0 0 0 0 2
	 6938 898 6863 898
2 1 0 1 -1 -1 10 0 -1 0.000 0 0 0 0 0 2
	 5889 1658 5889 1583
2 1 0 1 -1 -1 10 0 -1 0.000 0 0 0 0 0 2
	 5889 898 5889 973
2 1 0 1 -1 -1 10 0 -1 0.000 0 0 0 0 0 2
	 6938 1658 6938 1583
2 1 0 1 -1 -1 10 0 -1 0.000 0 0 0 0 0 2
	 6938 898 6938 973
2 1 2 1 -1 -1 10 0 -1 6.000 0 1 0 0 0 2
	 5889 1278 6938 1278
2 1 0 1 -1 -1 10 0 -1 0.000 0 0 0 0 0 5
	 5889 898 5889 1658 6938 1658 6938 898 5889 898
# End plot #2
2 1 0 1 -1 -1 10 0 -1 0.000 0 0 0 0 0 5
	 5889 898 5889 1658 6938 1658 6938 898 5889 898
4 2 -1 0 -1 0 8 0.0000 4 75 105 5829 1708 -4\001
4 2 -1 0 -1 0 8 0.0000 4 75 90 5829 1328  0\001
4 2 -1 0 -1 0 8 0.0000 4 75 90 5829 948  4\001
4 1 -1 0 -1 0 8 0.0000 4 75 90 5889 1808  0\001
4 1 -1 0 -1 0 8 0.0000 4 75 90 6938 1808  3\001
4 1 -1 0 -1 0 8 0.0000 4 90 255 6413 1808 Time\001
-6
6 1585 943 2844 1878
6 1750 968 2799 1728
# Begin plot #1
2 1 2 1 -1 -1 10 0 -1 3.000 0 1 0 0 0 50
	 1750 968 1771 977 1793 986 1814 995 1836 1003 1857 1012
	 1878 1020 1900 1028 1921 1036 1943 1043 1964 1051 1985 1058
	 2007 1065 2028 1072 2050 1078 2071 1085 2093 1091 2114 1097
	 2135 1103 2157 1109 2178 1115 2200 1121 2221 1126 2242 1132
	 2264 1137 2285 1142 2307 1147 2328 1152 2349 1157 2371 1161
	 2392 1166 2414 1170 2435 1174 2456 1179 2478 1183 2499 1187
	 2521 1191 2542 1194 2564 1198 2585 1202 2606 1205 2628 1209
	 2649 1212 2671 1215 2692 1219 2713 1222 2735 1225 2756 1228
	 2778 1231 2799 1234
-6
# End plot #1
6 1750 968 2799 1728
# Begin plot #2
2 1 2 1 -1 -1 10 0 -1 3.000 0 1 0 0 0 50
	 1750 1728 1771 1719 1793 1710 1814 1701 1836 1693 1857 1684
	 1878 1676 1900 1668 1921 1660 1943 1653 1964 1645 1985 1638
	 2007 1631 2028 1624 2050 1618 2071 1611 2093 1605 2114 1599
	 2135 1593 2157 1587 2178 1581 2200 1575 2221 1570 2242 1564
	 2264 1559 2285 1554 2307 1549 2328 1544 2349 1539 2371 1535
	 2392 1530 2414 1526 2435 1522 2456 1517 2478 1513 2499 1509
	 2521 1505 2542 1502 2564 1498 2585 1494 2606 1491 2628 1487
	 2649 1484 2671 1481 2692 1477 2713 1474 2735 1471 2756 1468
	 2778 1465 2799 1462
-6
2 1 0 1 -1 -1 10 0 -1 0.000 0 0 0 0 0 2
	 1750 1728 1825 1728
2 1 0 1 -1 -1 10 0 -1 0.000 0 0 0 0 0 2
	 2799 1728 2724 1728
2 1 0 1 -1 -1 10 0 -1 0.000 0 0 0 0 0 2
	 1750 1348 1825 1348
2 1 0 1 -1 -1 10 0 -1 0.000 0 0 0 0 0 2
	 2799 1348 2724 1348
2 1 0 1 -1 -1 10 0 -1 0.000 0 0 0 0 0 2
	 1750 968 1825 968
2 1 0 1 -1 -1 10 0 -1 0.000 0 0 0 0 0 2
	 2799 968 2724 968
2 1 0 1 -1 -1 10 0 -1 0.000 0 0 0 0 0 2
	 1750 1728 1750 1653
2 1 0 1 -1 -1 10 0 -1 0.000 0 0 0 0 0 2
	 1750 968 1750 1043
2 1 0 1 -1 -1 10 0 -1 0.000 0 0 0 0 0 2
	 2799 1728 2799 1653
2 1 0 1 -1 -1 10 0 -1 0.000 0 0 0 0 0 2
	 2799 968 2799 1043
2 1 2 1 -1 -1 10 0 -1 6.000 0 1 0 0 0 2
	 1750 1348 2799 1348
2 1 0 1 -1 -1 10 0 -1 0.000 0 0 0 0 0 5
	 1750 968 1750 1728 2799 1728 2799 968 1750 968
# End plot #2
2 1 0 1 -1 -1 10 0 -1 0.000 0 0 0 0 0 5
	 1750 968 1750 1728 2799 1728 2799 968 1750 968
4 2 -1 0 -1 0 8 0.0000 4 75 105 1690 1778 -1\001
4 2 -1 0 -1 0 8 0.0000 4 75 90 1690 1398  0\001
4 2 -1 0 -1 0 8 0.0000 4 75 90 1690 1018  1\001
4 1 -1 0 -1 0 8 0.0000 4 75 90 1750 1878  0\001
4 1 -1 0 -1 0 8 0.0000 4 75 90 2799 1878  3\001
4 1 -1 0 -1 0 8 0.0000 4 90 255 2274 1878 Time\001
-6
6 1704 4653 2963 5563
6 1869 4653 2918 5413
# Begin plot #1
2 1 0 1 -1 -1 10 0 -1 0.000 0 0 0 0 0 200
	 1869 5033 1874 5004 1880 4976 1885 4948 1890 4921 1895 4895
	 1901 4869 1906 4846 1911 4823 1916 4803 1922 4784 1927 4767
	 1932 4753 1938 4741 1943 4731 1948 4724 1953 4719 1959 4717
	 1964 4717 1969 4720 1974 4725 1980 4733 1985 4744 1990 4757
	 1996 4772 2001 4789 2006 4808 2011 4829 2017 4852 2022 4876
	 2027 4902 2032 4928 2038 4956 2043 4984 2048 5012 2053 5041
	 2059 5069 2064 5098 2069 5125 2075 5152 2080 5178 2085 5203
	 2090 5227 2096 5248 2101 5268 2106 5287 2111 5303 2117 5317
	 2122 5328 2127 5337 2133 5344 2138 5348 2143 5350 2148 5349
	 2154 5345 2159 5339 2164 5330 2169 5319 2175 5306 2180 5290
	 2185 5272 2191 5252 2196 5231 2201 5208 2206 5183 2212 5157
	 2217 5131 2222 5103 2227 5075 2233 5046 2238 5018 2243 4989
	 2249 4961 2254 4933 2259 4907 2264 4881 2270 4857 2275 4833
	 2280 4812 2285 4792 2291 4775 2296 4759 2301 4746 2307 4735
	 2312 4727 2317 4721 2322 4717 2328 4716 2333 4718 2338 4722
	 2343 4729 2349 4739 2354 4750 2359 4764 2365 4781 2370 4799
	 2375 4819 2380 4841 2386 4865 2391 4890 2396 4916 2401 4943
	 2407 4971 2412 4999 2417 5027 2422 5056 2428 5084 2433 5112
	 2438 5140 2444 5166 2449 5192 2454 5216 2459 5238 2465 5259
	 2470 5278 2475 5296 2480 5310 2486 5323 2491 5333 2496 5341
	 2502 5347 2507 5349 2512 5349 2517 5347 2523 5342 2528 5334
	 2533 5324 2538 5312 2544 5297 2549 5281 2554 5262 2560 5241
	 2565 5219 2570 5195 2575 5170 2581 5143 2586 5116 2591 5088
	 2596 5060 2602 5031 2607 5002 2612 4974 2618 4946 2623 4919
	 2628 4893 2633 4868 2639 4844 2644 4822 2649 4801 2654 4783
	 2660 4766 2665 4752 2670 4740 2676 4730 2681 4723 2686 4719
	 2691 4716 2697 4717 2702 4720 2707 4726 2712 4734 2718 4745
	 2723 4758 2728 4773 2734 4790 2739 4810 2744 4831 2749 4854
	 2755 4878 2760 4903 2765 4930 2770 4958 2776 4986 2781 5014
	 2786 5043 2791 5071 2797 5100 2802 5127 2807 5154 2813 5180
	 2818 5205 2823 5228 2828 5250 2834 5270 2839 5288 2844 5304
	 2849 5317 2855 5329 2860 5338 2865 5344 2871 5348 2876 5350
	 2881 5348 2886 5345 2892 5338 2897 5329 2902 5318 2907 5305
	 2913 5289 2918 5271
-6
2 1 0 1 -1 -1 10 0 -1 0.000 0 0 0 0 0 2
	 1869 5350 1944 5350
2 1 0 1 -1 -1 10 0 -1 0.000 0 0 0 0 0 2
	 2918 5350 2843 5350
2 1 0 1 -1 -1 10 0 -1 0.000 0 0 0 0 0 2
	 1869 5033 1944 5033
2 1 0 1 -1 -1 10 0 -1 0.000 0 0 0 0 0 2
	 2918 5033 2843 5033
2 1 0 1 -1 -1 10 0 -1 0.000 0 0 0 0 0 2
	 1869 4716 1944 4716
2 1 0 1 -1 -1 10 0 -1 0.000 0 0 0 0 0 2
	 2918 4716 2843 4716
2 1 0 1 -1 -1 10 0 -1 0.000 0 0 0 0 0 2
	 1869 5413 1869 5338
2 1 0 1 -1 -1 10 0 -1 0.000 0 0 0 0 0 2
	 1869 4653 1869 4728
2 1 0 1 -1 -1 10 0 -1 0.000 0 0 0 0 0 2
	 2918 5413 2918 5338
2 1 0 1 -1 -1 10 0 -1 0.000 0 0 0 0 0 2
	 2918 4653 2918 4728
2 1 2 1 -1 -1 10 0 -1 6.000 0 1 0 0 0 2
	 1869 5033 2918 5033
2 1 0 1 -1 -1 10 0 -1 0.000 0 0 0 0 0 5
	 1869 4653 1869 5413 2918 5413 2918 4653 1869 4653
# End plot #1
2 1 0 1 -1 -1 10 0 -1 0.000 0 0 0 0 0 5
	 1869 4653 1869 5413 2918 5413 2918 4653 1869 4653
4 2 -1 0 -1 0 8 0.0000 4 75 105 1809 5400 -1\001
4 2 -1 0 -1 0 8 0.0000 4 75 90 1809 5083  0\001
4 2 -1 0 -1 0 8 0.0000 4 75 90 1809 4766  1\001
4 1 -1 0 -1 0 8 0.0000 4 75 90 1869 5563  0\001
4 1 -1 0 -1 0 8 0.0000 4 75 90 2918 5563  3\001
4 1 -1 0 -1 0 8 0.0000 4 90 255 2393 5563 Time\001
-6
6 224 4653 1483 5563
6 389 4653 1438 5413
# Begin plot #1
2 1 0 1 -1 -1 10 0 -1 0.000 0 0 0 0 0 200
	 389 5033 394 4995 400 4957 405 4921 410 4886 415 4853
	 421 4823 426 4796 431 4773 436 4753 442 4737 447 4726
	 452 4719 458 4716 463 4719 468 4725 473 4737 479 4752
	 484 4772 489 4795 494 4822 500 4852 505 4884 510 4919
	 516 4956 521 4993 526 5031 531 5069 537 5107 542 5143
	 547 5178 552 5211 558 5241 563 5268 568 5292 573 5312
	 579 5328 584 5340 589 5347 595 5350 600 5348 605 5341
	 610 5330 616 5315 621 5295 626 5272 631 5245 637 5216
	 642 5183 647 5149 653 5112 658 5075 663 5037 668 4999
	 674 4961 679 4924 684 4889 689 4857 695 4826 700 4799
	 705 4775 711 4755 716 4739 721 4727 726 4719 732 4716
	 737 4718 742 4724 747 4735 753 4750 758 4770 763 4793
	 769 4819 774 4849 779 4881 784 4916 790 4952 795 4989
	 800 5027 805 5066 811 5103 816 5140 821 5175 827 5208
	 832 5238 837 5266 842 5290 848 5310 853 5327 858 5339
	 863 5347 869 5350 874 5348 879 5342 885 5331 890 5317
	 895 5297 900 5275 906 5248 911 5219 916 5187 921 5152
	 927 5116 932 5079 937 5040 942 5002 948 4965 953 4928
	 958 4893 964 4860 969 4829 974 4801 979 4777 985 4756
	 990 4740 995 4728 1000 4720 1006 4716 1011 4718 1016 4724
	 1022 4734 1027 4749 1032 4767 1037 4790 1043 4816 1048 4846
	 1053 4878 1058 4912 1064 4948 1069 4986 1074 5024 1080 5062
	 1085 5100 1090 5136 1095 5172 1101 5205 1106 5236 1111 5263
	 1116 5288 1122 5309 1127 5325 1132 5338 1138 5346 1143 5349
	 1148 5348 1153 5343 1159 5333 1164 5318 1169 5300 1174 5277
	 1180 5251 1185 5222 1190 5190 1196 5156 1201 5120 1206 5082
	 1211 5044 1217 5006 1222 4968 1227 4931 1232 4896 1238 4863
	 1243 4832 1248 4804 1254 4779 1259 4758 1264 4741 1269 4729
	 1275 4720 1280 4717 1285 4717 1290 4723 1296 4733 1301 4747
	 1306 4765 1311 4788 1317 4814 1322 4843 1327 4875 1333 4909
	 1338 4945 1343 4982 1348 5020 1354 5058 1359 5096 1364 5133
	 1369 5168 1375 5202 1380 5233 1385 5261 1391 5286 1396 5307
	 1401 5324 1406 5337 1412 5345 1417 5349 1422 5349 1427 5344
	 1433 5334 1438 5320
-6
2 1 0 1 -1 -1 10 0 -1 0.000 0 0 0 0 0 2
	 389 5350 464 5350
2 1 0 1 -1 -1 10 0 -1 0.000 0 0 0 0 0 2
	 1438 5350 1363 5350
2 1 0 1 -1 -1 10 0 -1 0.000 0 0 0 0 0 2
	 389 5033 464 5033
2 1 0 1 -1 -1 10 0 -1 0.000 0 0 0 0 0 2
	 1438 5033 1363 5033
2 1 0 1 -1 -1 10 0 -1 0.000 0 0 0 0 0 2
	 389 4716 464 4716
2 1 0 1 -1 -1 10 0 -1 0.000 0 0 0 0 0 2
	 1438 4716 1363 4716
2 1 0 1 -1 -1 10 0 -1 0.000 0 0 0 0 0 2
	 389 5413 389 5338
2 1 0 1 -1 -1 10 0 -1 0.000 0 0 0 0 0 2
	 389 4653 389 4728
2 1 0 1 -1 -1 10 0 -1 0.000 0 0 0 0 0 2
	 1438 5413 1438 5338
2 1 0 1 -1 -1 10 0 -1 0.000 0 0 0 0 0 2
	 1438 4653 1438 4728
2 1 2 1 -1 -1 10 0 -1 6.000 0 1 0 0 0 2
	 389 5033 1438 5033
2 1 0 1 -1 -1 10 0 -1 0.000 0 0 0 0 0 5
	 389 4653 389 5413 1438 5413 1438 4653 389 4653
# End plot #1
2 1 0 1 -1 -1 10 0 -1 0.000 0 0 0 0 0 5
	 389 4653 389 5413 1438 5413 1438 4653 389 4653
4 2 -1 0 -1 0 8 0.0000 4 75 105 329 5400 -1\001
4 2 -1 0 -1 0 8 0.0000 4 75 90 329 5083  0\001
4 2 -1 0 -1 0 8 0.0000 4 75 90 329 4766  1\001
4 1 -1 0 -1 0 8 0.0000 4 75 90 389 5563  0\001
4 1 -1 0 -1 0 8 0.0000 4 75 90 1438 5563  3\001
4 1 -1 0 -1 0 8 0.0000 4 90 255 913 5563 Time\001
-6
6 3209 4652 4468 5562
6 3374 4652 4423 5412
# Begin plot #1
2 1 0 1 -1 -1 10 0 -1 0.000 0 0 0 0 0 200
	 3374 5032 3379 5022 3385 5013 3390 5003 3395 4994 3400 4984
	 3406 4975 3411 4966 3416 4956 3421 4947 3427 4938 3432 4929
	 3437 4920 3443 4911 3448 4902 3453 4894 3458 4885 3464 4877
	 3469 4868 3474 4860 3479 4852 3485 4845 3490 4837 3495 4830
	 3501 4822 3506 4815 3511 4808 3516 4802 3522 4795 3527 4789
	 3532 4783 3537 4777 3543 4772 3548 4766 3553 4761 3558 4756
	 3564 4752 3569 4748 3574 4744 3580 4740 3585 4736 3590 4733
	 3595 4730 3601 4727 3606 4725 3611 4723 3616 4721 3622 4719
	 3627 4718 3632 4717 3638 4716 3643 4716 3648 4715 3653 4715
	 3659 4716 3664 4717 3669 4718 3674 4719 3680 4720 3685 4722
	 3690 4724 3696 4727 3701 4729 3706 4732 3711 4736 3717 4739
	 3722 4743 3727 4747 3732 4751 3738 4756 3743 4760 3748 4765
	 3754 4771 3759 4776 3764 4782 3769 4788 3775 4794 3780 4800
	 3785 4807 3790 4814 3796 4821 3801 4828 3806 4836 3812 4843
	 3817 4851 3822 4859 3827 4867 3833 4875 3838 4883 3843 4892
	 3848 4901 3854 4909 3859 4918 3864 4927 3870 4936 3875 4945
	 3880 4955 3885 4964 3891 4973 3896 4983 3901 4992 3906 5002
	 3912 5011 3917 5021 3922 5030 3927 5040 3933 5049 3938 5059
	 3943 5068 3949 5078 3954 5087 3959 5097 3964 5106 3970 5115
	 3975 5124 3980 5133 3985 5142 3991 5151 3996 5160 4001 5169
	 4007 5177 4012 5186 4017 5194 4022 5202 4028 5210 4033 5218
	 4038 5226 4043 5233 4049 5240 4054 5247 4059 5254 4065 5261
	 4070 5267 4075 5274 4080 5280 4086 5286 4091 5291 4096 5297
	 4101 5302 4107 5307 4112 5311 4117 5316 4123 5320 4128 5324
	 4133 5327 4138 5330 4144 5334 4149 5336 4154 5339 4159 5341
	 4165 5343 4170 5345 4175 5346 4181 5347 4186 5348 4191 5348
	 4196 5349 4202 5349 4207 5348 4212 5348 4217 5347 4223 5345
	 4228 5344 4233 5342 4239 5340 4244 5338 4249 5335 4254 5332
	 4260 5329 4265 5326 4270 5322 4275 5318 4281 5314 4286 5309
	 4291 5305 4296 5300 4302 5294 4307 5289 4312 5283 4318 5277
	 4323 5271 4328 5265 4333 5258 4339 5251 4344 5244 4349 5237
	 4354 5230 4360 5222 4365 5215 4370 5207 4376 5199 4381 5191
	 4386 5182 4391 5174 4397 5165 4402 5156 4407 5148 4412 5139
	 4418 5130 4423 5120
-6
2 1 0 1 -1 -1 10 0 -1 0.000 0 0 0 0 0 2
	 3374 5349 3449 5349
2 1 0 1 -1 -1 10 0 -1 0.000 0 0 0 0 0 2
	 4423 5349 4348 5349
2 1 0 1 -1 -1 10 0 -1 0.000 0 0 0 0 0 2
	 3374 5032 3449 5032
2 1 0 1 -1 -1 10 0 -1 0.000 0 0 0 0 0 2
	 4423 5032 4348 5032
2 1 0 1 -1 -1 10 0 -1 0.000 0 0 0 0 0 2
	 3374 4715 3449 4715
2 1 0 1 -1 -1 10 0 -1 0.000 0 0 0 0 0 2
	 4423 4715 4348 4715
2 1 0 1 -1 -1 10 0 -1 0.000 0 0 0 0 0 2
	 3374 5412 3374 5337
2 1 0 1 -1 -1 10 0 -1 0.000 0 0 0 0 0 2
	 3374 4652 3374 4727
2 1 0 1 -1 -1 10 0 -1 0.000 0 0 0 0 0 2
	 4423 5412 4423 5337
2 1 0 1 -1 -1 10 0 -1 0.000 0 0 0 0 0 2
	 4423 4652 4423 4727
2 1 2 1 -1 -1 10 0 -1 6.000 0 1 0 0 0 2
	 3374 5032 4423 5032
2 1 0 1 -1 -1 10 0 -1 0.000 0 0 0 0 0 5
	 3374 4652 3374 5412 4423 5412 4423 4652 3374 4652
# End plot #1
2 1 0 1 -1 -1 10 0 -1 0.000 0 0 0 0 0 5
	 3374 4652 3374 5412 4423 5412 4423 4652 3374 4652
4 2 -1 0 -1 0 8 0.0000 4 75 105 3314 5399 -1\001
4 2 -1 0 -1 0 8 0.0000 4 75 90 3314 5082  0\001
4 2 -1 0 -1 0 8 0.0000 4 75 90 3314 4765  1\001
4 1 -1 0 -1 0 8 0.0000 4 75 90 3374 5562  0\001
4 1 -1 0 -1 0 8 0.0000 4 75 90 4423 5562  3\001
4 1 -1 0 -1 0 8 0.0000 4 90 255 3898 5562 Time\001
-6
6 4403 2063 4722 2252
2 5 0 1 0 -1 50 -1 -1 0.000 0 0 -1 0 0 5
	0 src_images/zeta.jpeg
	 4403 2063 4493 2063 4493 2252 4403 2252 4403 2063
4 1 0 50 -1 0 13 0.0000 0 150 225 4609 2224 =0\001
-6
2 1 2 1 0 7 50 -1 -1 3.000 0 0 -1 0 0 2
	 4350 4500 1650 2850
2 1 2 1 0 7 50 -1 -1 3.000 0 0 -1 0 0 2
	 4350 4500 7050 2850
2 1 2 1 0 7 50 -1 -1 3.000 0 0 -1 0 0 2
	 4350 4500 5850 1725
2 1 2 1 0 7 50 -1 -1 3.000 0 0 -1 0 0 2
	 4350 4500 2850 1725
2 1 0 1 0 7 50 -1 -1 4.000 0 0 -1 0 0 2
	 1353 4504 1353 4639
2 1 0 1 0 7 50 -1 -1 4.000 0 0 -1 0 0 2
	 3375 4500 3375 4650
2 1 0 1 0 7 50 -1 -1 4.000 0 0 -1 0 0 2
	 7350 4500 1350 4500
2 1 0 1 0 7 50 -1 -1 4.000 0 0 -1 0 0 2
	 2325 4500 2325 4650
2 1 0 1 0 7 50 -1 -1 0.000 0 0 -1 1 0 2
	2 1 1.00 45.00 60.00
	 3300 4425 2475 4425
2 1 0 1 0 7 50 -1 -1 4.000 0 0 -1 0 0 2
	 4350 4500 4350 1350
2 1 0 1 0 7 50 -1 -1 0.000 0 0 -1 0 1 2
	2 1 1.00 45.00 60.00
	 6300 4425 5475 4425
2 5 0 1 0 -1 51 -1 -1 0.000 0 0 -1 0 0 5
	0 src_images/omega_n.png
	 3085 4189 3287 4189 3287 4337 3085 4337 3085 4189
2 5 0 1 0 -1 51 -1 -1 0.000 0 0 -1 0 0 5
	0 src_images/omega_n.png
	 6098 4200 6300 4200 6300 4348 6098 4348 6098 4200
2 5 0 1 0 -1 50 -1 -1 0.000 0 0 -1 0 0 5
	0 src_images/zeta.jpeg
	 2451 2501 2541 2501 2541 2690 2451 2690 2451 2501
2 5 0 1 0 -1 50 -1 -1 0.000 0 0 -1 0 0 5
	0 src_images/zeta.jpeg
	 5935 2501 6025 2501 6025 2690 5935 2690 5935 2501
2 5 0 1 0 -1 50 -1 -1 0.000 0 0 -1 0 0 5
	0 src_images/Imag.jpeg
	 4394 1551 4529 1551 4529 1704 4394 1704 4394 1551
2 5 0 1 0 -1 50 -1 -1 0.000 0 0 -1 0 0 5
	0 src_images/Real.jpeg
	 7235 4530 7370 4530 7370 4683 7235 4683 7235 4530
4 1 0 50 -1 0 13 0.0000 0 150 225 2665 2648 >0\001
4 1 0 50 -1 0 13 0.0000 0 150 225 6154 2661 <0\001
4 1 0 50 -1 0 10 0.0000 0 135 630 2734 4301 Increasing\001
4 1 0 50 -1 0 10 0.0000 0 135 630 5743 4312 Increasing\001
