#FIG 3.2
Landscape
Center
Inches
Letter
100.00
Single
-2
1200 2
2 1 2 1 -1 -1 10 0 -1     4.000 0 1 0 0 0 2
	 1575 4390 2625 4390
2 1 0 1 -1 -1 10 0 -1     0.000 0 0 0 0 0 5
	 1575 4650 2625 4650 2625 3870 1575 3870 1575 4650
2 1 0 1 -1 -1 10 0 -1     0.000 0 0 0 0 0 303
	 1575 4130 1575 4130 1579 4130 1582 4130 1586 4130 1589 4130
	 1593 4130 1596 4130 1600 4130 1603 4130 1607 4130 1610 4130
	 1614 4130 1617 4130 1621 4130 1624 4130 1628 4130 1631 4130
	 1635 4130 1638 4130 1642 4130 1645 4130 1649 4130 1652 4130
	 1656 4130 1659 4130 1663 4130 1666 4130 1670 4130 1673 4130
	 1677 4130 1680 4130 1684 4130 1687 4130 1691 4130 1694 4130
	 1698 4130 1701 4130 1705 4130 1708 4130 1712 4130 1715 4130
	 1719 4130 1722 4130 1726 4130 1729 4130 1733 4130 1736 4130
	 1740 4130 1743 4130 1747 4130 1750 4130 1754 4130 1757 4130
	 1761 4130 1764 4130 1768 4130 1771 4130 1775 4130 1778 4130
	 1782 4130 1785 4130 1789 4130 1792 4130 1796 4130 1799 4130
	 1803 4130 1806 4130 1810 4130 1813 4130 1817 4130 1820 4130
	 1824 4130 1827 4130 1831 4130 1834 4130 1838 4130 1841 4130
	 1845 4130 1848 4130 1852 4130 1855 4130 1859 4130 1862 4130
	 1866 4130 1869 4130 1873 4130 1876 4130 1880 4130 1883 4130
	 1887 4130 1890 4130 1894 4130 1897 4130 1901 4130 1904 4130
	 1908 4130 1911 4130 1915 4130 1918 4130 1922 4130 1925 4130
	 1929 4130 1932 4130 1936 4130 1939 4130 1943 4130 1946 4130
	 1950 4130 1953 4130 1957 4130 1960 4130 1964 4130 1967 4130
	 1971 4130 1974 4130 1978 4130 1981 4130 1985 4130 1988 4130
	 1992 4130 1995 4130 1999 4130 2002 4130 2006 4130 2009 4130
	 2013 4130 2016 4130 2020 4130 2023 4130 2027 4130 2030 4130
	 2034 4130 2037 4130 2041 4130 2044 4130 2048 4130 2051 4130
	 2055 4130 2058 4130 2062 4130 2065 4130 2069 4130 2072 4130
	 2076 4130 2079 4130 2083 4130 2086 4130 2090 4130 2093 4130
	 2097 4130 2100 4130 2104 4130 2107 4130 2111 4130 2114 4130
	 2118 4130 2121 4130 2125 4130 2128 4130 2132 4130 2135 4130
	 2139 4130 2142 4130 2146 4130 2149 4130 2153 4130 2156 4130
	 2160 4130 2163 4130 2167 4130 2170 4130 2174 4130 2177 4130
	 2181 4130 2184 4130 2188 4130 2191 4130 2195 4130 2198 4130
	 2202 4130 2205 4130 2209 4130 2212 4130 2216 4130 2219 4130
	 2223 4130 2226 4130 2230 4130 2233 4130 2237 4130 2240 4130
	 2244 4130 2247 4130 2251 4130 2254 4130 2258 4130 2261 4130
	 2265 4130 2268 4130 2272 4130 2275 4130 2279 4130 2282 4130
	 2286 4130 2289 4130 2293 4130 2296 4130 2300 4130 2303 4130
	 2307 4130 2310 4130 2314 4130 2317 4130 2321 4130 2324 4130
	 2328 4130 2331 4130 2335 4130 2338 4130 2342 4130 2345 4130
	 2349 4130 2352 4130 2356 4130 2359 4130 2363 4130 2366 4130
	 2370 4130 2373 4130 2377 4130 2380 4130 2384 4130 2387 4130
	 2391 4130 2394 4130 2398 4130 2401 4130 2405 4130 2408 4130
	 2412 4130 2415 4130 2419 4130 2422 4130 2426 4130 2429 4130
	 2433 4130 2436 4130 2440 4130 2443 4130 2447 4130 2450 4130
	 2454 4130 2457 4130 2461 4130 2464 4130 2468 4130 2471 4130
	 2475 4130 2478 4130 2482 4130 2485 4130 2489 4130 2492 4130
	 2496 4130 2499 4130 2503 4130 2506 4130 2510 4130 2513 4130
	 2517 4130 2520 4130 2524 4130 2527 4130 2531 4130 2534 4130
	 2538 4130 2541 4130 2545 4130 2548 4130 2552 4130 2555 4130
	 2559 4130 2562 4130 2566 4130 2569 4130 2573 4130 2576 4130
	 2580 4130 2583 4130 2587 4130 2590 4130 2594 4130 2597 4130
	 2601 4130 2604 4130 2608 4130 2611 4130 2615 4130 2618 4130
	 2622 4130 2625 4130 2625 4130
2 1 0 1 -1 -1 10 0 -1     0.000 0 0 0 0 0 5
	 1575 4650 2625 4650 2625 3870 1575 3870 1575 4650
