#FIG 3.2
Landscape
Center
Inches
Letter
100.00
Single
-2
1200 2
2 1 2 1 -1 -1 10 0 -1     4.000 0 1 0 0 0 2
	 1575 4390 2625 4390
2 1 0 1 -1 -1 10 0 -1     0.000 0 0 0 0 0 5
	 1575 4650 2625 4650 2625 3870 1575 3870 1575 4650
2 1 0 1 -1 -1 10 0 -1     0.000 0 0 0 0 0 303
	 1575 4130 1575 4130 1579 4136 1582 4143 1586 4149 1589 4155
	 1593 4161 1596 4166 1600 4172 1603 4177 1607 4182 1610 4188
	 1614 4193 1617 4197 1621 4202 1624 4207 1628 4211 1631 4216
	 1635 4220 1638 4224 1642 4228 1645 4232 1649 4236 1652 4240
	 1656 4244 1659 4247 1663 4251 1666 4254 1670 4258 1673 4261
	 1677 4264 1680 4267 1684 4270 1687 4273 1691 4276 1694 4279
	 1698 4282 1701 4284 1705 4287 1708 4289 1712 4292 1715 4294
	 1719 4297 1722 4299 1726 4301 1729 4303 1733 4306 1736 4308
	 1740 4310 1743 4312 1747 4314 1750 4316 1754 4317 1757 4319
	 1761 4321 1764 4323 1768 4324 1771 4326 1775 4327 1778 4329
	 1782 4331 1785 4332 1789 4333 1792 4335 1796 4336 1799 4338
	 1803 4339 1806 4340 1810 4341 1813 4343 1817 4344 1820 4345
	 1824 4346 1827 4347 1831 4348 1834 4349 1838 4350 1841 4351
	 1845 4352 1848 4353 1852 4354 1855 4355 1859 4356 1862 4357
	 1866 4357 1869 4358 1873 4359 1876 4360 1880 4360 1883 4361
	 1887 4362 1890 4363 1894 4363 1897 4364 1901 4365 1904 4365
	 1908 4366 1911 4366 1915 4367 1918 4368 1922 4368 1925 4369
	 1929 4369 1932 4370 1936 4370 1939 4371 1943 4371 1946 4372
	 1950 4372 1953 4373 1957 4373 1960 4373 1964 4374 1967 4374
	 1971 4375 1974 4375 1978 4375 1981 4376 1985 4376 1988 4376
	 1992 4377 1995 4377 1999 4377 2002 4378 2006 4378 2009 4378
	 2013 4379 2016 4379 2020 4379 2023 4379 2027 4380 2030 4380
	 2034 4380 2037 4380 2041 4381 2044 4381 2048 4381 2051 4381
	 2055 4382 2058 4382 2062 4382 2065 4382 2069 4382 2072 4383
	 2076 4383 2079 4383 2083 4383 2086 4383 2090 4383 2093 4384
	 2097 4384 2100 4384 2104 4384 2107 4384 2111 4384 2114 4384
	 2118 4385 2121 4385 2125 4385 2128 4385 2132 4385 2135 4385
	 2139 4385 2142 4385 2146 4386 2149 4386 2153 4386 2156 4386
	 2160 4386 2163 4386 2167 4386 2170 4386 2174 4386 2177 4386
	 2181 4387 2184 4387 2188 4387 2191 4387 2195 4387 2198 4387
	 2202 4387 2205 4387 2209 4387 2212 4387 2216 4387 2219 4387
	 2223 4387 2226 4388 2230 4388 2233 4388 2237 4388 2240 4388
	 2244 4388 2247 4388 2251 4388 2254 4388 2258 4388 2261 4388
	 2265 4388 2268 4388 2272 4388 2275 4388 2279 4388 2282 4388
	 2286 4388 2289 4388 2293 4388 2296 4388 2300 4389 2303 4389
	 2307 4389 2310 4389 2314 4389 2317 4389 2321 4389 2324 4389
	 2328 4389 2331 4389 2335 4389 2338 4389 2342 4389 2345 4389
	 2349 4389 2352 4389 2356 4389 2359 4389 2363 4389 2366 4389
	 2370 4389 2373 4389 2377 4389 2380 4389 2384 4389 2387 4389
	 2391 4389 2394 4389 2398 4389 2401 4389 2405 4389 2408 4389
	 2412 4389 2415 4389 2419 4389 2422 4389 2426 4389 2429 4389
	 2433 4389 2436 4389 2440 4389 2443 4389 2447 4389 2450 4389
	 2454 4390 2457 4390 2461 4390 2464 4390 2468 4390 2471 4390
	 2475 4390 2478 4390 2482 4390 2485 4390 2489 4390 2492 4390
	 2496 4390 2499 4390 2503 4390 2506 4390 2510 4390 2513 4390
	 2517 4390 2520 4390 2524 4390 2527 4390 2531 4390 2534 4390
	 2538 4390 2541 4390 2545 4390 2548 4390 2552 4390 2555 4390
	 2559 4390 2562 4390 2566 4390 2569 4390 2573 4390 2576 4390
	 2580 4390 2583 4390 2587 4390 2590 4390 2594 4390 2597 4390
	 2601 4390 2604 4390 2608 4390 2611 4390 2615 4390 2618 4390
	 2622 4390 2625 4390 2625 4390
2 1 0 1 -1 -1 10 0 -1     0.000 0 0 0 0 0 5
	 1575 4650 2625 4650 2625 3870 1575 3870 1575 4650
