#FIG 3.2
Landscape
Center
Inches
Letter
100.00
Single
-2
1200 2
2 1 2 1 -1 -1 10 0 -1     4.000 0 1 0 0 0 2
	 1575 4260 2625 4260
2 1 0 1 -1 -1 10 0 -1     0.000 0 0 0 0 0 5
	 1575 4650 2625 4650 2625 3870 1575 3870 1575 4650
2 1 0 1 -1 -1 10 0 -1     0.000 0 0 0 0 0 303
	 1575 4260 1575 4260 1579 4249 1582 4238 1586 4227 1589 4216
	 1593 4205 1596 4194 1600 4183 1603 4172 1607 4162 1610 4152
	 1614 4141 1617 4131 1621 4122 1624 4112 1628 4103 1631 4094
	 1635 4085 1638 4076 1642 4068 1645 4060 1649 4053 1652 4045
	 1656 4038 1659 4032 1663 4026 1666 4020 1670 4014 1673 4009
	 1677 4005 1680 4000 1684 3997 1687 3993 1691 3990 1694 3988
	 1698 3985 1701 3984 1705 3983 1708 3982 1712 3981 1715 3982
	 1719 3982 1722 3983 1726 3985 1729 3986 1733 3989 1736 3991
	 1740 3995 1743 3998 1747 4002 1750 4007 1754 4012 1757 4017
	 1761 4022 1764 4028 1768 4035 1771 4042 1775 4049 1778 4056
	 1782 4064 1785 4072 1789 4080 1792 4089 1796 4098 1799 4107
	 1803 4116 1806 4126 1810 4136 1813 4146 1817 4156 1820 4167
	 1824 4177 1827 4188 1831 4199 1834 4210 1838 4221 1841 4232
	 1845 4243 1848 4254 1852 4265 1855 4276 1859 4287 1862 4298
	 1866 4309 1869 4320 1873 4331 1876 4342 1880 4352 1883 4363
	 1887 4373 1890 4383 1894 4393 1897 4403 1901 4412 1904 4421
	 1908 4430 1911 4439 1915 4448 1918 4456 1922 4463 1925 4471
	 1929 4478 1932 4485 1936 4491 1939 4497 1943 4503 1946 4508
	 1950 4513 1953 4517 1957 4521 1960 4525 1964 4528 1967 4531
	 1971 4533 1974 4535 1978 4537 1981 4538 1985 4538 1988 4539
	 1992 4538 1995 4538 1999 4536 2002 4535 2006 4533 2009 4530
	 2013 4527 2016 4524 2020 4520 2023 4516 2027 4511 2030 4506
	 2034 4501 2037 4495 2041 4489 2044 4482 2048 4475 2051 4468
	 2055 4460 2058 4453 2062 4444 2065 4436 2069 4427 2072 4418
	 2076 4409 2079 4399 2083 4389 2086 4379 2090 4369 2093 4359
	 2097 4348 2100 4338 2104 4327 2107 4316 2111 4305 2114 4294
	 2118 4283 2121 4272 2125 4261 2128 4250 2132 4239 2135 4228
	 2139 4216 2142 4206 2146 4195 2149 4184 2153 4173 2156 4163
	 2160 4152 2163 4142 2167 4132 2170 4122 2174 4113 2177 4103
	 2181 4094 2184 4086 2188 4077 2191 4069 2195 4061 2198 4053
	 2202 4046 2205 4039 2209 4032 2212 4026 2216 4020 2219 4015
	 2223 4010 2226 4005 2230 4001 2233 3997 2237 3993 2240 3990
	 2244 3988 2247 3986 2251 3984 2254 3983 2258 3982 2261 3981
	 2265 3982 2268 3982 2272 3983 2275 3984 2279 3986 2282 3989
	 2286 3991 2289 3994 2293 3998 2296 4002 2300 4006 2303 4011
	 2307 4016 2310 4022 2314 4028 2317 4034 2321 4041 2324 4048
	 2328 4055 2331 4063 2335 4071 2338 4080 2342 4088 2345 4097
	 2349 4106 2352 4116 2356 4125 2359 4135 2363 4145 2366 4155
	 2370 4166 2373 4176 2377 4187 2380 4198 2384 4209 2387 4220
	 2391 4231 2394 4242 2398 4253 2401 4264 2405 4275 2408 4286
	 2412 4298 2415 4309 2419 4319 2422 4330 2426 4341 2429 4352
	 2433 4362 2436 4372 2440 4382 2443 4392 2447 4402 2450 4412
	 2454 4421 2457 4430 2461 4438 2464 4447 2468 4455 2471 4463
	 2475 4470 2478 4477 2482 4484 2485 4491 2489 4497 2492 4502
	 2496 4508 2499 4513 2503 4517 2506 4521 2510 4525 2513 4528
	 2517 4531 2520 4533 2524 4535 2527 4537 2531 4538 2534 4538
	 2538 4539 2541 4538 2545 4538 2548 4536 2552 4535 2555 4533
	 2559 4530 2562 4527 2566 4524 2569 4520 2573 4516 2576 4512
	 2580 4507 2583 4501 2587 4495 2590 4489 2594 4483 2597 4476
	 2601 4469 2604 4461 2608 4453 2611 4445 2615 4437 2618 4428
	 2622 4419 2625 4409 2625 4409
2 1 0 1 -1 -1 10 0 -1     0.000 0 0 0 0 0 5
	 1575 4650 2625 4650 2625 3870 1575 3870 1575 4650
