#FIG 3.2
Landscape
Center
Inches
Letter
100.00
Single
-2
1200 2
2 1 0 1 -1 -1 10 0 -1     0.000 0 0 0 0 0 2
	 1575 4400 1650 4400
2 1 0 1 -1 -1 10 0 -1     0.000 0 0 0 0 0 2
	 7125 4400 7050 4400
4 2 -1 0 -1 0 10.000  0.000 4 125.000 150.000 1500 4462  0\001
2 1 0 1 -1 -1 10 0 -1     0.000 0 0 0 0 0 2
	 1575 4019 1650 4019
2 1 0 1 -1 -1 10 0 -1     0.000 0 0 0 0 0 2
	 7125 4019 7050 4019
4 2 -1 0 -1 0 10.000  0.000 4 125.000 300.000 1500 4081  0.2\001
2 1 0 1 -1 -1 10 0 -1     0.000 0 0 0 0 0 2
	 1575 3637 1650 3637
2 1 0 1 -1 -1 10 0 -1     0.000 0 0 0 0 0 2
	 7125 3637 7050 3637
4 2 -1 0 -1 0 10.000  0.000 4 125.000 300.000 1500 3699  0.4\001
2 1 0 1 -1 -1 10 0 -1     0.000 0 0 0 0 0 2
	 1575 3256 1650 3256
2 1 0 1 -1 -1 10 0 -1     0.000 0 0 0 0 0 2
	 7125 3256 7050 3256
4 2 -1 0 -1 0 10.000  0.000 4 125.000 300.000 1500 3318  0.6\001
2 1 0 1 -1 -1 10 0 -1     0.000 0 0 0 0 0 2
	 1575 2875 1650 2875
2 1 0 1 -1 -1 10 0 -1     0.000 0 0 0 0 0 2
	 7125 2875 7050 2875
4 2 -1 0 -1 0 10.000  0.000 4 125.000 300.000 1500 2937  0.8\001
2 1 0 1 -1 -1 10 0 -1     0.000 0 0 0 0 0 2
	 1575 2494 1650 2494
2 1 0 1 -1 -1 10 0 -1     0.000 0 0 0 0 0 2
	 7125 2494 7050 2494
4 2 -1 0 -1 0 10.000  0.000 4 125.000 150.000 1500 2556  1\001
2 1 0 1 -1 -1 10 0 -1     0.000 0 0 0 0 0 2
	 1575 2112 1650 2112
2 1 0 1 -1 -1 10 0 -1     0.000 0 0 0 0 0 2
	 7125 2112 7050 2112
4 2 -1 0 -1 0 10.000  0.000 4 125.000 300.000 1500 2174  1.2\001
2 1 0 1 -1 -1 10 0 -1     0.000 0 0 0 0 0 2
	 1575 1731 1650 1731
2 1 0 1 -1 -1 10 0 -1     0.000 0 0 0 0 0 2
	 7125 1731 7050 1731
4 2 -1 0 -1 0 10.000  0.000 4 125.000 300.000 1500 1793  1.4\001
2 1 0 1 -1 -1 10 0 -1     0.000 0 0 0 0 0 2
	 1575 1350 1650 1350
2 1 0 1 -1 -1 10 0 -1     0.000 0 0 0 0 0 2
	 7125 1350 7050 1350
4 2 -1 0 -1 0 10.000  0.000 4 125.000 300.000 1500 1412  1.6\001
2 1 0 1 -1 -1 10 0 -1     0.000 0 0 0 0 0 2
	 1575 4400 1575 4325
2 1 0 1 -1 -1 10 0 -1     0.000 0 0 0 0 0 2
	 1575 1350 1575 1425
4 1 -1 0 -1 0 10.000  0.000 4 125.000 150.000 1575 4587  0\001
2 1 0 1 -1 -1 10 0 -1     0.000 0 0 0 0 0 2
	 2429 4400 2429 4325
2 1 0 1 -1 -1 10 0 -1     0.000 0 0 0 0 0 2
	 2429 1350 2429 1425
4 1 -1 0 -1 0 10.000  0.000 4 125.000 300.000 2429 4587  0.5\001
2 1 0 1 -1 -1 10 0 -1     0.000 0 0 0 0 0 2
	 3283 4400 3283 4325
2 1 0 1 -1 -1 10 0 -1     0.000 0 0 0 0 0 2
	 3283 1350 3283 1425
4 1 -1 0 -1 0 10.000  0.000 4 125.000 150.000 3283 4587  1\001
2 1 0 1 -1 -1 10 0 -1     0.000 0 0 0 0 0 2
	 4137 4400 4137 4325
2 1 0 1 -1 -1 10 0 -1     0.000 0 0 0 0 0 2
	 4137 1350 4137 1425
4 1 -1 0 -1 0 10.000  0.000 4 125.000 300.000 4137 4587  1.5\001
2 1 0 1 -1 -1 10 0 -1     0.000 0 0 0 0 0 2
	 4990 4400 4990 4325
2 1 0 1 -1 -1 10 0 -1     0.000 0 0 0 0 0 2
	 4990 1350 4990 1425
4 1 -1 0 -1 0 10.000  0.000 4 125.000 150.000 4990 4587  2\001
2 1 0 1 -1 -1 10 0 -1     0.000 0 0 0 0 0 2
	 5844 4400 5844 4325
2 1 0 1 -1 -1 10 0 -1     0.000 0 0 0 0 0 2
	 5844 1350 5844 1425
4 1 -1 0 -1 0 10.000  0.000 4 125.000 300.000 5844 4587  2.5\001
2 1 0 1 -1 -1 10 0 -1     0.000 0 0 0 0 0 2
	 6698 4400 6698 4325
2 1 0 1 -1 -1 10 0 -1     0.000 0 0 0 0 0 2
	 6698 1350 6698 1425
4 1 -1 0 -1 0 10.000  0.000 4 125.000 150.000 6698 4587  3\001
2 1 0 1 -1 -1 10 0 -1     0.000 0 0 0 0 0 5
	 1575 1350 1575 4400 7125 4400 7125 1350 1575 1350
4 1 -1 0 -1 0 10.000  0.000 4 125.000 300.000 4350 4774 Time\001
2 1 0 1 -1 -1 10 0 -1     0.000 0 0 0 0 0 251
	 1575 4400 1575 4400 1597 4396 1620 4384 1642 4365 1664 4339
	 1686 4306 1709 4266 1731 4221 1753 4171 1776 4115 1798 4054
	 1820 3990 1842 3922 1865 3850 1887 3775 1909 3698 1932 3619
	 1954 3538 1976 3456 1998 3373 2021 3290 2043 3206 2065 3123
	 2088 3040 2110 2959 2132 2878 2155 2799 2177 2722 2199 2646
	 2221 2573 2244 2502 2266 2435 2288 2369 2311 2307 2333 2248
	 2355 2193 2377 2141 2400 2092 2422 2047 2444 2005 2467 1967
	 2489 1933 2511 1902 2533 1875 2556 1852 2578 1832 2600 1816
	 2623 1803 2645 1793 2667 1787 2689 1784 2712 1784 2734 1787
	 2756 1793 2779 1802 2801 1813 2823 1827 2845 1843 2868 1860
	 2890 1880 2912 1902 2935 1925 2957 1950 2979 1976 3002 2004
	 3024 2032 3046 2061 3068 2091 3091 2121 3113 2152 3135 2183
	 3158 2214 3180 2245 3202 2276 3224 2307 3247 2337 3269 2367
	 3291 2396 3314 2424 3336 2452 3358 2478 3380 2504 3403 2529
	 3425 2553 3447 2575 3470 2596 3492 2616 3514 2635 3536 2653
	 3559 2669 3581 2683 3603 2697 3626 2709 3648 2720 3670 2729
	 3692 2737 3715 2744 3737 2749 3759 2753 3782 2756 3804 2758
	 3826 2758 3848 2757 3871 2756 3893 2753 3915 2749 3938 2745
	 3960 2739 3982 2733 4005 2726 4027 2718 4049 2709 4071 2700
	 4094 2691 4116 2681 4138 2671 4161 2660 4183 2649 4205 2638
	 4227 2626 4250 2615 4272 2603 4294 2592 4317 2580 4339 2569
	 4361 2557 4383 2546 4406 2535 4428 2525 4450 2514 4473 2504
	 4495 2494 4517 2485 4539 2476 4562 2467 4584 2459 4606 2451
	 4629 2444 4651 2438 4673 2431 4695 2426 4718 2420 4740 2416
	 4762 2411 4785 2408 4807 2405 4829 2402 4852 2400 4874 2398
	 4896 2397 4918 2396 4941 2395 4963 2395 4985 2396 5008 2397
	 5030 2398 5052 2400 5074 2401 5097 2404 5119 2406 5141 2409
	 5164 2412 5186 2415 5208 2419 5230 2422 5253 2426 5275 2430
	 5297 2434 5320 2438 5342 2442 5364 2447 5386 2451 5409 2455
	 5431 2460 5453 2464 5476 2468 5498 2472 5520 2476 5542 2480
	 5565 2484 5587 2488 5609 2492 5632 2495 5654 2499 5676 2502
	 5698 2505 5721 2508 5743 2511 5765 2514 5788 2516 5810 2518
	 5832 2520 5855 2522 5877 2524 5899 2525 5921 2526 5944 2528
	 5966 2528 5988 2529 6011 2530 6033 2530 6055 2530 6077 2530
	 6100 2530 6122 2530 6144 2530 6167 2529 6189 2528 6211 2528
	 6233 2527 6256 2526 6278 2525 6300 2524 6323 2522 6345 2521
	 6367 2520 6389 2518 6412 2517 6434 2515 6456 2514 6479 2512
	 6501 2510 6523 2509 6545 2507 6568 2506 6590 2504 6612 2502
	 6635 2501 6657 2499 6679 2498 6702 2496 6724 2495 6746 2494
	 6768 2492 6791 2491 6813 2490 6835 2489 6858 2488 6880 2487
	 6902 2486 6924 2485 6947 2484 6969 2484 6991 2483 7014 2482
	 7036 2482 7058 2481 7080 2481 7103 2481 7125 2480
2 1 2 1 -1 -1 10 0 -1     3.000 0 1 0 0 0 251
	 1575 2494 1575 2494 1597 2494 1620 2494 1642 2494 1664 2494
	 1686 2494 1709 2494 1731 2494 1753 2494 1776 2494 1798 2494
	 1820 2494 1842 2494 1865 2494 1887 2494 1909 2494 1932 2494
	 1954 2494 1976 2494 1998 2494 2021 2494 2043 2494 2065 2494
	 2088 2494 2110 2494 2132 2494 2155 2494 2177 2494 2199 2494
	 2221 2494 2244 2494 2266 2494 2288 2494 2311 2494 2333 2494
	 2355 2494 2377 2494 2400 2494 2422 2494 2444 2494 2467 2494
	 2489 2494 2511 2494 2533 2494 2556 2494 2578 2494 2600 2494
	 2623 2494 2645 2494 2667 2494 2689 2494 2712 2494 2734 2494
	 2756 2494 2779 2494 2801 2494 2823 2494 2845 2494 2868 2494
	 2890 2494 2912 2494 2935 2494 2957 2494 2979 2494 3002 2494
	 3024 2494 3046 2494 3068 2494 3091 2494 3113 2494 3135 2494
	 3158 2494 3180 2494 3202 2494 3224 2494 3247 2494 3269 2494
	 3291 2494 3314 2494 3336 2494 3358 2494 3380 2494 3403 2494
	 3425 2494 3447 2494 3470 2494 3492 2494 3514 2494 3536 2494
	 3559 2494 3581 2494 3603 2494 3626 2494 3648 2494 3670 2494
	 3692 2494 3715 2494 3737 2494 3759 2494 3782 2494 3804 2494
	 3826 2494 3848 2494 3871 2494 3893 2494 3915 2494 3938 2494
	 3960 2494 3982 2494 4005 2494 4027 2494 4049 2494 4071 2494
	 4094 2494 4116 2494 4138 2494 4161 2494 4183 2494 4205 2494
	 4227 2494 4250 2494 4272 2494 4294 2494 4317 2494 4339 2494
	 4361 2494 4383 2494 4406 2494 4428 2494 4450 2494 4473 2494
	 4495 2494 4517 2494 4539 2494 4562 2494 4584 2494 4606 2494
	 4629 2494 4651 2494 4673 2494 4695 2494 4718 2494 4740 2494
	 4762 2494 4785 2494 4807 2494 4829 2494 4852 2494 4874 2494
	 4896 2494 4918 2494 4941 2494 4963 2494 4985 2494 5008 2494
	 5030 2494 5052 2494 5074 2494 5097 2494 5119 2494 5141 2494
	 5164 2494 5186 2494 5208 2494 5230 2494 5253 2494 5275 2494
	 5297 2494 5320 2494 5342 2494 5364 2494 5386 2494 5409 2494
	 5431 2494 5453 2494 5476 2494 5498 2494 5520 2494 5542 2494
	 5565 2494 5587 2494 5609 2494 5632 2494 5654 2494 5676 2494
	 5698 2494 5721 2494 5743 2494 5765 2494 5788 2494 5810 2494
	 5832 2494 5855 2494 5877 2494 5899 2494 5921 2494 5944 2494
	 5966 2494 5988 2494 6011 2494 6033 2494 6055 2494 6077 2494
	 6100 2494 6122 2494 6144 2494 6167 2494 6189 2494 6211 2494
	 6233 2494 6256 2494 6278 2494 6300 2494 6323 2494 6345 2494
	 6367 2494 6389 2494 6412 2494 6434 2494 6456 2494 6479 2494
	 6501 2494 6523 2494 6545 2494 6568 2494 6590 2494 6612 2494
	 6635 2494 6657 2494 6679 2494 6702 2494 6724 2494 6746 2494
	 6768 2494 6791 2494 6813 2494 6835 2494 6858 2494 6880 2494
	 6902 2494 6924 2494 6947 2494 6969 2494 6991 2494 7014 2494
	 7036 2494 7058 2494 7080 2494 7103 2494 7125 2494
2 1 1 1 -1 -1 10 0 -1     3.000 0 0 0 0 0 251
	 1575 4209 1575 4209 1597 4209 1620 4209 1642 4209 1664 4209
	 1686 4209 1709 4209 1731 4209 1753 4209 1776 4209 1798 4209
	 1820 4209 1842 4209 1865 4209 1887 4209 1909 4209 1932 4209
	 1954 4209 1976 4209 1998 4209 2021 4209 2043 4209 2065 4209
	 2088 4209 2110 4209 2132 4209 2155 4209 2177 4209 2199 4209
	 2221 4209 2244 4209 2266 4209 2288 4209 2311 4209 2333 4209
	 2355 4209 2377 4209 2400 4209 2422 4209 2444 4209 2467 4209
	 2489 4209 2511 4209 2533 4209 2556 4209 2578 4209 2600 4209
	 2623 4209 2645 4209 2667 4209 2689 4209 2712 4209 2734 4209
	 2756 4209 2779 4209 2801 4209 2823 4209 2845 4209 2868 4209
	 2890 4209 2912 4209 2935 4209 2957 4209 2979 4209 3002 4209
	 3024 4209 3046 4209 3068 4209 3091 4209 3113 4209 3135 4209
	 3158 4209 3180 4209 3202 4209 3224 4209 3247 4209 3269 4209
	 3291 4209 3314 4209 3336 4209 3358 4209 3380 4209 3403 4209
	 3425 4209 3447 4209 3470 4209 3492 4209 3514 4209 3536 4209
	 3559 4209 3581 4209 3603 4209 3626 4209 3648 4209 3670 4209
	 3692 4209 3715 4209 3737 4209 3759 4209 3782 4209 3804 4209
	 3826 4209 3848 4209 3871 4209 3893 4209 3915 4209 3938 4209
	 3960 4209 3982 4209 4005 4209 4027 4209 4049 4209 4071 4209
	 4094 4209 4116 4209 4138 4209 4161 4209 4183 4209 4205 4209
	 4227 4209 4250 4209 4272 4209 4294 4209 4317 4209 4339 4209
	 4361 4209 4383 4209 4406 4209 4428 4209 4450 4209 4473 4209
	 4495 4209 4517 4209 4539 4209 4562 4209 4584 4209 4606 4209
	 4629 4209 4651 4209 4673 4209 4695 4209 4718 4209 4740 4209
	 4762 4209 4785 4209 4807 4209 4829 4209 4852 4209 4874 4209
	 4896 4209 4918 4209 4941 4209 4963 4209 4985 4209 5008 4209
	 5030 4209 5052 4209 5074 4209 5097 4209 5119 4209 5141 4209
	 5164 4209 5186 4209 5208 4209 5230 4209 5253 4209 5275 4209
	 5297 4209 5320 4209 5342 4209 5364 4209 5386 4209 5409 4209
	 5431 4209 5453 4209 5476 4209 5498 4209 5520 4209 5542 4209
	 5565 4209 5587 4209 5609 4209 5632 4209 5654 4209 5676 4209
	 5698 4209 5721 4209 5743 4209 5765 4209 5788 4209 5810 4209
	 5832 4209 5855 4209 5877 4209 5899 4209 5921 4209 5944 4209
	 5966 4209 5988 4209 6011 4209 6033 4209 6055 4209 6077 4209
	 6100 4209 6122 4209 6144 4209 6167 4209 6189 4209 6211 4209
	 6233 4209 6256 4209 6278 4209 6300 4209 6323 4209 6345 4209
	 6367 4209 6389 4209 6412 4209 6434 4209 6456 4209 6479 4209
	 6501 4209 6523 4209 6545 4209 6568 4209 6590 4209 6612 4209
	 6635 4209 6657 4209 6679 4209 6702 4209 6724 4209 6746 4209
	 6768 4209 6791 4209 6813 4209 6835 4209 6858 4209 6880 4209
	 6902 4209 6924 4209 6947 4209 6969 4209 6991 4209 7014 4209
	 7036 4209 7058 4209 7080 4209 7103 4209 7125 4209
2 1 1 1 -1 -1 10 0 -1     3.000 0 0 0 0 0 251
	 1575 2684 1575 2684 1597 2684 1620 2684 1642 2684 1664 2684
	 1686 2684 1709 2684 1731 2684 1753 2684 1776 2684 1798 2684
	 1820 2684 1842 2684 1865 2684 1887 2684 1909 2684 1932 2684
	 1954 2684 1976 2684 1998 2684 2021 2684 2043 2684 2065 2684
	 2088 2684 2110 2684 2132 2684 2155 2684 2177 2684 2199 2684
	 2221 2684 2244 2684 2266 2684 2288 2684 2311 2684 2333 2684
	 2355 2684 2377 2684 2400 2684 2422 2684 2444 2684 2467 2684
	 2489 2684 2511 2684 2533 2684 2556 2684 2578 2684 2600 2684
	 2623 2684 2645 2684 2667 2684 2689 2684 2712 2684 2734 2684
	 2756 2684 2779 2684 2801 2684 2823 2684 2845 2684 2868 2684
	 2890 2684 2912 2684 2935 2684 2957 2684 2979 2684 3002 2684
	 3024 2684 3046 2684 3068 2684 3091 2684 3113 2684 3135 2684
	 3158 2684 3180 2684 3202 2684 3224 2684 3247 2684 3269 2684
	 3291 2684 3314 2684 3336 2684 3358 2684 3380 2684 3403 2684
	 3425 2684 3447 2684 3470 2684 3492 2684 3514 2684 3536 2684
	 3559 2684 3581 2684 3603 2684 3626 2684 3648 2684 3670 2684
	 3692 2684 3715 2684 3737 2684 3759 2684 3782 2684 3804 2684
	 3826 2684 3848 2684 3871 2684 3893 2684 3915 2684 3938 2684
	 3960 2684 3982 2684 4005 2684 4027 2684 4049 2684 4071 2684
	 4094 2684 4116 2684 4138 2684 4161 2684 4183 2684 4205 2684
	 4227 2684 4250 2684 4272 2684 4294 2684 4317 2684 4339 2684
	 4361 2684 4383 2684 4406 2684 4428 2684 4450 2684 4473 2684
	 4495 2684 4517 2684 4539 2684 4562 2684 4584 2684 4606 2684
	 4629 2684 4651 2684 4673 2684 4695 2684 4718 2684 4740 2684
	 4762 2684 4785 2684 4807 2684 4829 2684 4852 2684 4874 2684
	 4896 2684 4918 2684 4941 2684 4963 2684 4985 2684 5008 2684
	 5030 2684 5052 2684 5074 2684 5097 2684 5119 2684 5141 2684
	 5164 2684 5186 2684 5208 2684 5230 2684 5253 2684 5275 2684
	 5297 2684 5320 2684 5342 2684 5364 2684 5386 2684 5409 2684
	 5431 2684 5453 2684 5476 2684 5498 2684 5520 2684 5542 2684
	 5565 2684 5587 2684 5609 2684 5632 2684 5654 2684 5676 2684
	 5698 2684 5721 2684 5743 2684 5765 2684 5788 2684 5810 2684
	 5832 2684 5855 2684 5877 2684 5899 2684 5921 2684 5944 2684
	 5966 2684 5988 2684 6011 2684 6033 2684 6055 2684 6077 2684
	 6100 2684 6122 2684 6144 2684 6167 2684 6189 2684 6211 2684
	 6233 2684 6256 2684 6278 2684 6300 2684 6323 2684 6345 2684
	 6367 2684 6389 2684 6412 2684 6434 2684 6456 2684 6479 2684
	 6501 2684 6523 2684 6545 2684 6568 2684 6590 2684 6612 2684
	 6635 2684 6657 2684 6679 2684 6702 2684 6724 2684 6746 2684
	 6768 2684 6791 2684 6813 2684 6835 2684 6858 2684 6880 2684
	 6902 2684 6924 2684 6947 2684 6969 2684 6991 2684 7014 2684
	 7036 2684 7058 2684 7080 2684 7103 2684 7125 2684
2 1 0 1 -1 -1 10 0 -1     0.000 0 0 0 0 0 251
	 1575 2398 1575 2398 1597 2398 1620 2398 1642 2398 1664 2398
	 1686 2398 1709 2398 1731 2398 1753 2398 1776 2398 1798 2398
	 1820 2398 1842 2398 1865 2398 1887 2398 1909 2398 1932 2398
	 1954 2398 1976 2398 1998 2398 2021 2398 2043 2398 2065 2398
	 2088 2398 2110 2398 2132 2398 2155 2398 2177 2398 2199 2398
	 2221 2398 2244 2398 2266 2398 2288 2398 2311 2398 2333 2398
	 2355 2398 2377 2398 2400 2398 2422 2398 2444 2398 2467 2398
	 2489 2398 2511 2398 2533 2398 2556 2398 2578 2398 2600 2398
	 2623 2398 2645 2398 2667 2398 2689 2398 2712 2398 2734 2398
	 2756 2398 2779 2398 2801 2398 2823 2398 2845 2398 2868 2398
	 2890 2398 2912 2398 2935 2398 2957 2398 2979 2398 3002 2398
	 3024 2398 3046 2398 3068 2398 3091 2398 3113 2398 3135 2398
	 3158 2398 3180 2398 3202 2398 3224 2398 3247 2398 3269 2398
	 3291 2398 3314 2398 3336 2398 3358 2398 3380 2398 3403 2398
	 3425 2398 3447 2398 3470 2398 3492 2398 3514 2398 3536 2398
	 3559 2398 3581 2398 3603 2398 3626 2398 3648 2398 3670 2398
	 3692 2398 3715 2398 3737 2398 3759 2398 3782 2398 3804 2398
	 3826 2398 3848 2398 3871 2398 3893 2398 3915 2398 3938 2398
	 3960 2398 3982 2398 4005 2398 4027 2398 4049 2398 4071 2398
	 4094 2398 4116 2398 4138 2398 4161 2398 4183 2398 4205 2398
	 4227 2398 4250 2398 4272 2398 4294 2398 4317 2398 4339 2398
	 4361 2398 4383 2398 4406 2398 4428 2398 4450 2398 4473 2398
	 4495 2398 4517 2398 4539 2398 4562 2398 4584 2398 4606 2398
	 4629 2398 4651 2398 4673 2398 4695 2398 4718 2398 4740 2398
	 4762 2398 4785 2398 4807 2398 4829 2398 4852 2398 4874 2398
	 4896 2398 4918 2398 4941 2398 4963 2398 4985 2398 5008 2398
	 5030 2398 5052 2398 5074 2398 5097 2398 5119 2398 5141 2398
	 5164 2398 5186 2398 5208 2398 5230 2398 5253 2398 5275 2398
	 5297 2398 5320 2398 5342 2398 5364 2398 5386 2398 5409 2398
	 5431 2398 5453 2398 5476 2398 5498 2398 5520 2398 5542 2398
	 5565 2398 5587 2398 5609 2398 5632 2398 5654 2398 5676 2398
	 5698 2398 5721 2398 5743 2398 5765 2398 5788 2398 5810 2398
	 5832 2398 5855 2398 5877 2398 5899 2398 5921 2398 5944 2398
	 5966 2398 5988 2398 6011 2398 6033 2398 6055 2398 6077 2398
	 6100 2398 6122 2398 6144 2398 6167 2398 6189 2398 6211 2398
	 6233 2398 6256 2398 6278 2398 6300 2398 6323 2398 6345 2398
	 6367 2398 6389 2398 6412 2398 6434 2398 6456 2398 6479 2398
	 6501 2398 6523 2398 6545 2398 6568 2398 6590 2398 6612 2398
	 6635 2398 6657 2398 6679 2398 6702 2398 6724 2398 6746 2398
	 6768 2398 6791 2398 6813 2398 6835 2398 6858 2398 6880 2398
	 6902 2398 6924 2398 6947 2398 6969 2398 6991 2398 7014 2398
	 7036 2398 7058 2398 7080 2398 7103 2398 7125 2398
2 1 0 1 -1 -1 10 0 -1     0.000 0 0 0 0 0 251
	 1575 2589 1575 2589 1597 2589 1620 2589 1642 2589 1664 2589
	 1686 2589 1709 2589 1731 2589 1753 2589 1776 2589 1798 2589
	 1820 2589 1842 2589 1865 2589 1887 2589 1909 2589 1932 2589
	 1954 2589 1976 2589 1998 2589 2021 2589 2043 2589 2065 2589
	 2088 2589 2110 2589 2132 2589 2155 2589 2177 2589 2199 2589
	 2221 2589 2244 2589 2266 2589 2288 2589 2311 2589 2333 2589
	 2355 2589 2377 2589 2400 2589 2422 2589 2444 2589 2467 2589
	 2489 2589 2511 2589 2533 2589 2556 2589 2578 2589 2600 2589
	 2623 2589 2645 2589 2667 2589 2689 2589 2712 2589 2734 2589
	 2756 2589 2779 2589 2801 2589 2823 2589 2845 2589 2868 2589
	 2890 2589 2912 2589 2935 2589 2957 2589 2979 2589 3002 2589
	 3024 2589 3046 2589 3068 2589 3091 2589 3113 2589 3135 2589
	 3158 2589 3180 2589 3202 2589 3224 2589 3247 2589 3269 2589
	 3291 2589 3314 2589 3336 2589 3358 2589 3380 2589 3403 2589
	 3425 2589 3447 2589 3470 2589 3492 2589 3514 2589 3536 2589
	 3559 2589 3581 2589 3603 2589 3626 2589 3648 2589 3670 2589
	 3692 2589 3715 2589 3737 2589 3759 2589 3782 2589 3804 2589
	 3826 2589 3848 2589 3871 2589 3893 2589 3915 2589 3938 2589
	 3960 2589 3982 2589 4005 2589 4027 2589 4049 2589 4071 2589
	 4094 2589 4116 2589 4138 2589 4161 2589 4183 2589 4205 2589
	 4227 2589 4250 2589 4272 2589 4294 2589 4317 2589 4339 2589
	 4361 2589 4383 2589 4406 2589 4428 2589 4450 2589 4473 2589
	 4495 2589 4517 2589 4539 2589 4562 2589 4584 2589 4606 2589
	 4629 2589 4651 2589 4673 2589 4695 2589 4718 2589 4740 2589
	 4762 2589 4785 2589 4807 2589 4829 2589 4852 2589 4874 2589
	 4896 2589 4918 2589 4941 2589 4963 2589 4985 2589 5008 2589
	 5030 2589 5052 2589 5074 2589 5097 2589 5119 2589 5141 2589
	 5164 2589 5186 2589 5208 2589 5230 2589 5253 2589 5275 2589
	 5297 2589 5320 2589 5342 2589 5364 2589 5386 2589 5409 2589
	 5431 2589 5453 2589 5476 2589 5498 2589 5520 2589 5542 2589
	 5565 2589 5587 2589 5609 2589 5632 2589 5654 2589 5676 2589
	 5698 2589 5721 2589 5743 2589 5765 2589 5788 2589 5810 2589
	 5832 2589 5855 2589 5877 2589 5899 2589 5921 2589 5944 2589
	 5966 2589 5988 2589 6011 2589 6033 2589 6055 2589 6077 2589
	 6100 2589 6122 2589 6144 2589 6167 2589 6189 2589 6211 2589
	 6233 2589 6256 2589 6278 2589 6300 2589 6323 2589 6345 2589
	 6367 2589 6389 2589 6412 2589 6434 2589 6456 2589 6479 2589
	 6501 2589 6523 2589 6545 2589 6568 2589 6590 2589 6612 2589
	 6635 2589 6657 2589 6679 2589 6702 2589 6724 2589 6746 2589
	 6768 2589 6791 2589 6813 2589 6835 2589 6858 2589 6880 2589
	 6902 2589 6924 2589 6947 2589 6969 2589 6991 2589 7014 2589
	 7036 2589 7058 2589 7080 2589 7103 2589 7125 2589
2 1 0 1 -1 -1 10 0 -1     0.000 0 0 0 0 0 5
	 1575 1350 1575 4400 7125 4400 7125 1350 1575 1350
