#FIG 3.2
Landscape
Center
Inches
Letter  
100.00
Single
-2
1200 2
6 2750 1271 3080 1451
4 0 0 50 -1 3 8 0.0000 0 75 60 2843 1451 2\001
4 0 0 50 -1 3 12 0.0000 0 165 330 2750 1406 R , I\001
-6
6 3557 2255 3710 2434
4 0 0 50 -1 3 12 0.0000 0 135 120 3557 2390 R\001
4 0 0 50 -1 3 8 0.0000 0 75 60 3650 2434 3\001
-6
6 1314 1056 1472 1217
4 0 0 50 -1 3 12 0.0000 0 135 105 1314 1191 C\001
4 0 0 50 -1 3 8 0.0000 0 75 60 1412 1217 1\001
-6
6 1270 1402 1390 1590
4 0 0 50 -1 3 12 0.0000 0 135 120 1270 1537 P\001
4 0 0 50 -1 3 8 0.0000 0 75 60 1319 1590 1\001
-6
6 2241 1424 2361 1603
4 0 0 50 -1 3 12 0.0000 0 135 120 2241 1559 P\001
4 0 0 50 -1 3 8 0.0000 0 75 60 2289 1603 2\001
-6
6 3061 2399 3181 2583
4 0 0 50 -1 3 12 0.0000 0 135 120 3061 2534 P\001
4 0 0 50 -1 3 8 0.0000 0 75 60 3110 2583 3\001
-6
6 3975 2400 4275 2700
4 0 0 50 -1 3 12 0.0000 0 135 90 3975 2543 q\001
4 0 0 50 -1 0 8 0.0000 0 75 165 4059 2636 out\001
-6
2 1 0 1 0 7 50 -1 -1 0.000 0 0 -1 0 0 3
	 1125 900 1125 1650 2925 1650
2 1 0 1 0 7 50 -1 -1 0.000 0 0 -1 0 0 4
	 1650 900 1650 1500 2100 1500 2100 900
2 1 0 1 0 7 50 -1 -1 0.000 0 0 -1 0 0 3
	 2625 900 2625 1500 2925 1500
2 1 0 1 0 7 50 -1 -1 0.000 0 0 -1 0 0 3
	 2925 1875 2925 2475 2700 2475
2 1 0 1 0 7 50 -1 -1 0.000 0 0 -1 0 0 3
	 3450 1875 3450 2475 3750 2475
2 1 0 1 0 7 50 -1 -1 0.000 0 0 -1 0 0 2
	 2700 2625 3750 2625
2 1 0 1 0 7 50 -1 -1 0.000 0 0 -1 1 0 2
	2 1 1.00 45.00 60.00
	 2325 2550 2700 2550
2 1 0 1 0 7 50 -1 -1 0.000 0 0 -1 0 0 2
	 2700 1500 2850 1650
2 1 0 1 0 7 50 -1 -1 0.000 0 0 -1 0 0 2
	 2850 1500 2700 1650
2 1 0 1 0 7 50 -1 -1 0.000 0 0 -1 0 0 2
	 3525 2475 3675 2625
2 1 0 1 0 7 50 -1 -1 0.000 0 0 -1 0 0 2
	 3675 2475 3525 2625
2 1 0 1 0 7 50 -1 -1 0.000 0 0 -1 0 0 2
	 1950 1500 1800 1650
2 1 0 1 0 7 50 -1 -1 0.000 0 0 -1 0 0 2
	 1800 1500 1950 1650
2 1 0 3 0 7 50 -1 -1 0.000 0 0 -1 0 0 1
	 1425 1575
2 1 0 3 0 7 50 -1 -1 0.000 0 0 -1 0 0 1
	 2400 1575
2 1 0 3 0 7 50 -1 -1 0.000 0 0 -1 0 0 1
	 3225 2550
2 1 0 1 0 7 50 -1 -1 0.000 0 0 -1 1 0 2
	2 1 1.00 45.00 60.00
	 1725 1725 2025 1725
3 2 0 1 0 7 50 -1 -1 0.000 0 1 0 3
	2 1 1.00 45.00 60.00
	 1125 600 1350 675 1425 900
	 0.000 -1.000 0.000
3 2 0 1 0 7 50 -1 -1 0.000 0 1 0 3
	2 1 1.00 45.00 60.00
	 2925 1575 3150 1650 3225 1875
	 0.000 -1.000 0.000
3 2 0 1 0 7 50 -1 -1 0.000 0 1 0 3
	2 1 1.00 45.00 60.00
	 3750 2550 3975 2625 4050 2850
	 0.000 -1.000 0.000
4 0 0 50 -1 3 12 0.0000 0 135 105 2282 1186 C\001
4 0 0 50 -1 3 12 0.0000 0 135 105 3106 2170 C\001
4 0 0 50 -1 3 8 0.0000 0 75 60 2387 1213 2\001
4 0 0 50 -1 3 8 0.0000 0 75 60 3212 2200 3\001
4 0 0 50 -1 3 12 0.0000 0 135 120 1836 1402 R\001
4 0 0 50 -1 3 8 0.0000 0 75 60 1928 1442 1\001
4 0 0 50 -1 3 12 0.0000 0 165 105 3185 1637 Q\001
4 0 0 50 -1 3 12 0.0000 0 135 120 2986 806 P\001
4 0 0 50 -1 3 8 0.0000 0 75 60 3044 859 0\001
4 0 0 50 -1 3 12 0.0000 0 135 90 1760 1843 q\001
4 0 0 50 -1 3 8 0.0000 0 75 60 1833 1921 1\001
4 0 0 50 -1 3 12 0.0000 0 135 90 1351 593 q\001
4 0 0 50 -1 3 12 0.0000 0 135 90 2273 2420 q\001
4 0 0 50 -1 0 8 0.0000 0 105 180 2357 2499 in,2\001
4 0 0 50 -1 0 8 0.0000 0 105 180 1435 686 in,1\001
